"Apparaten","Uitvoering 1","Uitvoering 2","Uitvoering 3"
1,34.096,42.213,42.756
2,41.459,43.58,51.49
3,49.854,51.628,51.981
4,73.52,53.017,51.443
5,75.776,76.957,54.892
6,75.547,74.891,53.823
7,74.855,75.268,81.354
8,79.27,76.829,79.96
