INSTRUMENTATION_STATUS: numtests=14
INSTRUMENTATION_STATUS: stream=
org.hogent.nicolas.loots.scalabletestingconcept.TestSet1:
INSTRUMENTATION_STATUS: id=AndroidJUnitRunner
INSTRUMENTATION_STATUS: test=testOpenActivity
INSTRUMENTATION_STATUS: class=org.hogent.nicolas.loots.scalabletestingconcept.TestSet1
INSTRUMENTATION_STATUS: current=1
INSTRUMENTATION_STATUS_CODE: 1
INSTRUMENTATION_STATUS: numtests=14
INSTRUMENTATION_STATUS: stream=.
INSTRUMENTATION_STATUS: id=AndroidJUnitRunner
INSTRUMENTATION_STATUS: test=testOpenActivity
INSTRUMENTATION_STATUS: class=org.hogent.nicolas.loots.scalabletestingconcept.TestSet1
INSTRUMENTATION_STATUS: current=1
INSTRUMENTATION_STATUS_CODE: 0
INSTRUMENTATION_STATUS: numtests=14
INSTRUMENTATION_STATUS: stream=
org.hogent.nicolas.loots.scalabletestingconcept.TestSet2:
INSTRUMENTATION_STATUS: id=AndroidJUnitRunner
INSTRUMENTATION_STATUS: test=testInput_invalid
INSTRUMENTATION_STATUS: class=org.hogent.nicolas.loots.scalabletestingconcept.TestSet2
INSTRUMENTATION_STATUS: current=2
INSTRUMENTATION_STATUS_CODE: 1
INSTRUMENTATION_STATUS: numtests=14
INSTRUMENTATION_STATUS: stream=.
INSTRUMENTATION_STATUS: id=AndroidJUnitRunner
INSTRUMENTATION_STATUS: test=testInput_invalid
INSTRUMENTATION_STATUS: class=org.hogent.nicolas.loots.scalabletestingconcept.TestSet2
INSTRUMENTATION_STATUS: current=2
INSTRUMENTATION_STATUS_CODE: 0
INSTRUMENTATION_STATUS: numtests=14
INSTRUMENTATION_STATUS: stream=
INSTRUMENTATION_STATUS: id=AndroidJUnitRunner
INSTRUMENTATION_STATUS: test=testInput_valid
INSTRUMENTATION_STATUS: class=org.hogent.nicolas.loots.scalabletestingconcept.TestSet2
INSTRUMENTATION_STATUS: current=3
INSTRUMENTATION_STATUS_CODE: 1
INSTRUMENTATION_STATUS: numtests=14
INSTRUMENTATION_STATUS: stream=.
INSTRUMENTATION_STATUS: id=AndroidJUnitRunner
INSTRUMENTATION_STATUS: test=testInput_valid
INSTRUMENTATION_STATUS: class=org.hogent.nicolas.loots.scalabletestingconcept.TestSet2
INSTRUMENTATION_STATUS: current=3
INSTRUMENTATION_STATUS_CODE: 0
INSTRUMENTATION_STATUS: numtests=14
INSTRUMENTATION_STATUS: stream=
INSTRUMENTATION_STATUS: id=AndroidJUnitRunner
INSTRUMENTATION_STATUS: test=testInput_invalid_failsRandomly
INSTRUMENTATION_STATUS: class=org.hogent.nicolas.loots.scalabletestingconcept.TestSet2
INSTRUMENTATION_STATUS: current=4
INSTRUMENTATION_STATUS_CODE: 1
INSTRUMENTATION_STATUS: numtests=14
INSTRUMENTATION_STATUS: stream=.
INSTRUMENTATION_STATUS: id=AndroidJUnitRunner
INSTRUMENTATION_STATUS: test=testInput_invalid_failsRandomly
INSTRUMENTATION_STATUS: class=org.hogent.nicolas.loots.scalabletestingconcept.TestSet2
INSTRUMENTATION_STATUS: current=4
INSTRUMENTATION_STATUS_CODE: 0
INSTRUMENTATION_STATUS: numtests=14
INSTRUMENTATION_STATUS: stream=
org.hogent.nicolas.loots.scalabletestingconcept.TestSet3:
INSTRUMENTATION_STATUS: id=AndroidJUnitRunner
INSTRUMENTATION_STATUS: test=testImportAndClearPicture
INSTRUMENTATION_STATUS: class=org.hogent.nicolas.loots.scalabletestingconcept.TestSet3
INSTRUMENTATION_STATUS: current=5
INSTRUMENTATION_STATUS_CODE: 1
INSTRUMENTATION_STATUS: numtests=14
INSTRUMENTATION_STATUS: stream=.
INSTRUMENTATION_STATUS: id=AndroidJUnitRunner
INSTRUMENTATION_STATUS: test=testImportAndClearPicture
INSTRUMENTATION_STATUS: class=org.hogent.nicolas.loots.scalabletestingconcept.TestSet3
INSTRUMENTATION_STATUS: current=5
INSTRUMENTATION_STATUS_CODE: 0
INSTRUMENTATION_STATUS: numtests=14
INSTRUMENTATION_STATUS: stream=
org.hogent.nicolas.loots.scalabletestingconcept.TestSet4:
INSTRUMENTATION_STATUS: id=AndroidJUnitRunner
INSTRUMENTATION_STATUS: test=testAddItem
INSTRUMENTATION_STATUS: class=org.hogent.nicolas.loots.scalabletestingconcept.TestSet4
INSTRUMENTATION_STATUS: current=6
INSTRUMENTATION_STATUS_CODE: 1
INSTRUMENTATION_STATUS: numtests=14
INSTRUMENTATION_STATUS: stream=.
INSTRUMENTATION_STATUS: id=AndroidJUnitRunner
INSTRUMENTATION_STATUS: test=testAddItem
INSTRUMENTATION_STATUS: class=org.hogent.nicolas.loots.scalabletestingconcept.TestSet4
INSTRUMENTATION_STATUS: current=6
INSTRUMENTATION_STATUS_CODE: 0
INSTRUMENTATION_STATUS: numtests=14
INSTRUMENTATION_STATUS: stream=
INSTRUMENTATION_STATUS: id=AndroidJUnitRunner
INSTRUMENTATION_STATUS: test=testAddItem_failsRandomly
INSTRUMENTATION_STATUS: class=org.hogent.nicolas.loots.scalabletestingconcept.TestSet4
INSTRUMENTATION_STATUS: current=7
INSTRUMENTATION_STATUS_CODE: 1
INSTRUMENTATION_STATUS: numtests=14
INSTRUMENTATION_STATUS: stream=.
INSTRUMENTATION_STATUS: id=AndroidJUnitRunner
INSTRUMENTATION_STATUS: test=testAddItem_failsRandomly
INSTRUMENTATION_STATUS: class=org.hogent.nicolas.loots.scalabletestingconcept.TestSet4
INSTRUMENTATION_STATUS: current=7
INSTRUMENTATION_STATUS_CODE: 0
INSTRUMENTATION_STATUS: numtests=14
INSTRUMENTATION_STATUS: stream=
INSTRUMENTATION_STATUS: id=AndroidJUnitRunner
INSTRUMENTATION_STATUS: test=testRemoveItem
INSTRUMENTATION_STATUS: class=org.hogent.nicolas.loots.scalabletestingconcept.TestSet4
INSTRUMENTATION_STATUS: current=8
INSTRUMENTATION_STATUS_CODE: 1
INSTRUMENTATION_STATUS: numtests=14
INSTRUMENTATION_STATUS: stream=.
INSTRUMENTATION_STATUS: id=AndroidJUnitRunner
INSTRUMENTATION_STATUS: test=testRemoveItem
INSTRUMENTATION_STATUS: class=org.hogent.nicolas.loots.scalabletestingconcept.TestSet4
INSTRUMENTATION_STATUS: current=8
INSTRUMENTATION_STATUS_CODE: 0
INSTRUMENTATION_STATUS: numtests=14
INSTRUMENTATION_STATUS: stream=
org.hogent.nicolas.loots.scalabletestingconcept.TestSet5:
INSTRUMENTATION_STATUS: id=AndroidJUnitRunner
INSTRUMENTATION_STATUS: test=testEditItem
INSTRUMENTATION_STATUS: class=org.hogent.nicolas.loots.scalabletestingconcept.TestSet5
INSTRUMENTATION_STATUS: current=9
INSTRUMENTATION_STATUS_CODE: 1
INSTRUMENTATION_STATUS: numtests=14
INSTRUMENTATION_STATUS: stream=.
INSTRUMENTATION_STATUS: id=AndroidJUnitRunner
INSTRUMENTATION_STATUS: test=testEditItem
INSTRUMENTATION_STATUS: class=org.hogent.nicolas.loots.scalabletestingconcept.TestSet5
INSTRUMENTATION_STATUS: current=9
INSTRUMENTATION_STATUS_CODE: 0
INSTRUMENTATION_STATUS: numtests=14
INSTRUMENTATION_STATUS: stream=
INSTRUMENTATION_STATUS: id=AndroidJUnitRunner
INSTRUMENTATION_STATUS: test=testAddItem_firstNameRequired
INSTRUMENTATION_STATUS: class=org.hogent.nicolas.loots.scalabletestingconcept.TestSet5
INSTRUMENTATION_STATUS: current=10
INSTRUMENTATION_STATUS_CODE: 1
INSTRUMENTATION_STATUS: numtests=14
INSTRUMENTATION_STATUS: stream=.
INSTRUMENTATION_STATUS: id=AndroidJUnitRunner
INSTRUMENTATION_STATUS: test=testAddItem_firstNameRequired
INSTRUMENTATION_STATUS: class=org.hogent.nicolas.loots.scalabletestingconcept.TestSet5
INSTRUMENTATION_STATUS: current=10
INSTRUMENTATION_STATUS_CODE: 0
INSTRUMENTATION_STATUS: numtests=14
INSTRUMENTATION_STATUS: stream=
INSTRUMENTATION_STATUS: id=AndroidJUnitRunner
INSTRUMENTATION_STATUS: test=testAddItem_invalidPhoneNumber
INSTRUMENTATION_STATUS: class=org.hogent.nicolas.loots.scalabletestingconcept.TestSet5
INSTRUMENTATION_STATUS: current=11
INSTRUMENTATION_STATUS_CODE: 1
INSTRUMENTATION_STATUS: numtests=14
INSTRUMENTATION_STATUS: stream=.
INSTRUMENTATION_STATUS: id=AndroidJUnitRunner
INSTRUMENTATION_STATUS: test=testAddItem_invalidPhoneNumber
INSTRUMENTATION_STATUS: class=org.hogent.nicolas.loots.scalabletestingconcept.TestSet5
INSTRUMENTATION_STATUS: current=11
INSTRUMENTATION_STATUS_CODE: 0
INSTRUMENTATION_STATUS: numtests=14
INSTRUMENTATION_STATUS: stream=
INSTRUMENTATION_STATUS: id=AndroidJUnitRunner
INSTRUMENTATION_STATUS: test=testRemoveItem
INSTRUMENTATION_STATUS: class=org.hogent.nicolas.loots.scalabletestingconcept.TestSet5
INSTRUMENTATION_STATUS: current=12
INSTRUMENTATION_STATUS_CODE: 1
INSTRUMENTATION_STATUS: numtests=14
INSTRUMENTATION_STATUS: stream=.
INSTRUMENTATION_STATUS: id=AndroidJUnitRunner
INSTRUMENTATION_STATUS: test=testRemoveItem
INSTRUMENTATION_STATUS: class=org.hogent.nicolas.loots.scalabletestingconcept.TestSet5
INSTRUMENTATION_STATUS: current=12
INSTRUMENTATION_STATUS_CODE: 0
INSTRUMENTATION_STATUS: numtests=14
INSTRUMENTATION_STATUS: stream=
INSTRUMENTATION_STATUS: id=AndroidJUnitRunner
INSTRUMENTATION_STATUS: test=testAddItem_lastNameRequired
INSTRUMENTATION_STATUS: class=org.hogent.nicolas.loots.scalabletestingconcept.TestSet5
INSTRUMENTATION_STATUS: current=13
INSTRUMENTATION_STATUS_CODE: 1
INSTRUMENTATION_STATUS: numtests=14
INSTRUMENTATION_STATUS: stream=.
INSTRUMENTATION_STATUS: id=AndroidJUnitRunner
INSTRUMENTATION_STATUS: test=testAddItem_lastNameRequired
INSTRUMENTATION_STATUS: class=org.hogent.nicolas.loots.scalabletestingconcept.TestSet5
INSTRUMENTATION_STATUS: current=13
INSTRUMENTATION_STATUS_CODE: 0
INSTRUMENTATION_STATUS: numtests=14
INSTRUMENTATION_STATUS: stream=
INSTRUMENTATION_STATUS: id=AndroidJUnitRunner
INSTRUMENTATION_STATUS: test=testAddItem_correctInput
INSTRUMENTATION_STATUS: class=org.hogent.nicolas.loots.scalabletestingconcept.TestSet5
INSTRUMENTATION_STATUS: current=14
INSTRUMENTATION_STATUS_CODE: 1
INSTRUMENTATION_STATUS: numtests=14
INSTRUMENTATION_STATUS: stream=.
INSTRUMENTATION_STATUS: id=AndroidJUnitRunner
INSTRUMENTATION_STATUS: test=testAddItem_correctInput
INSTRUMENTATION_STATUS: class=org.hogent.nicolas.loots.scalabletestingconcept.TestSet5
INSTRUMENTATION_STATUS: current=14
INSTRUMENTATION_STATUS_CODE: 0
INSTRUMENTATION_RESULT: stream=

Time: 36.037

OK (14 tests)


INSTRUMENTATION_CODE: -1
