INSTRUMENTATION_STATUS: numtests=14
INSTRUMENTATION_STATUS: stream=
org.hogent.nicolas.loots.scalabletestingconcept.TestSet1:
INSTRUMENTATION_STATUS: id=AndroidJUnitRunner
INSTRUMENTATION_STATUS: test=testOpenActivity
INSTRUMENTATION_STATUS: class=org.hogent.nicolas.loots.scalabletestingconcept.TestSet1
INSTRUMENTATION_STATUS: current=1
INSTRUMENTATION_STATUS_CODE: 1
INSTRUMENTATION_STATUS: numtests=14
INSTRUMENTATION_STATUS: stream=.
INSTRUMENTATION_STATUS: id=AndroidJUnitRunner
INSTRUMENTATION_STATUS: test=testOpenActivity
INSTRUMENTATION_STATUS: class=org.hogent.nicolas.loots.scalabletestingconcept.TestSet1
INSTRUMENTATION_STATUS: current=1
INSTRUMENTATION_STATUS_CODE: 0
INSTRUMENTATION_STATUS: numtests=14
INSTRUMENTATION_STATUS: stream=
org.hogent.nicolas.loots.scalabletestingconcept.TestSet2:
INSTRUMENTATION_STATUS: id=AndroidJUnitRunner
INSTRUMENTATION_STATUS: test=testInput_invalid
INSTRUMENTATION_STATUS: class=org.hogent.nicolas.loots.scalabletestingconcept.TestSet2
INSTRUMENTATION_STATUS: current=2
INSTRUMENTATION_STATUS_CODE: 1
INSTRUMENTATION_STATUS: numtests=14
INSTRUMENTATION_STATUS: stream=.
INSTRUMENTATION_STATUS: id=AndroidJUnitRunner
INSTRUMENTATION_STATUS: test=testInput_invalid
INSTRUMENTATION_STATUS: class=org.hogent.nicolas.loots.scalabletestingconcept.TestSet2
INSTRUMENTATION_STATUS: current=2
INSTRUMENTATION_STATUS_CODE: 0
INSTRUMENTATION_STATUS: numtests=14
INSTRUMENTATION_STATUS: stream=
INSTRUMENTATION_STATUS: id=AndroidJUnitRunner
INSTRUMENTATION_STATUS: test=testInput_valid
INSTRUMENTATION_STATUS: class=org.hogent.nicolas.loots.scalabletestingconcept.TestSet2
INSTRUMENTATION_STATUS: current=3
INSTRUMENTATION_STATUS_CODE: 1
INSTRUMENTATION_STATUS: numtests=14
INSTRUMENTATION_STATUS: stream=.
INSTRUMENTATION_STATUS: id=AndroidJUnitRunner
INSTRUMENTATION_STATUS: test=testInput_valid
INSTRUMENTATION_STATUS: class=org.hogent.nicolas.loots.scalabletestingconcept.TestSet2
INSTRUMENTATION_STATUS: current=3
INSTRUMENTATION_STATUS_CODE: 0
INSTRUMENTATION_STATUS: numtests=14
INSTRUMENTATION_STATUS: stream=
INSTRUMENTATION_STATUS: id=AndroidJUnitRunner
INSTRUMENTATION_STATUS: test=testInput_invalid_failsRandomly
INSTRUMENTATION_STATUS: class=org.hogent.nicolas.loots.scalabletestingconcept.TestSet2
INSTRUMENTATION_STATUS: current=4
INSTRUMENTATION_STATUS_CODE: 1
INSTRUMENTATION_STATUS: numtests=14
INSTRUMENTATION_STATUS: stream=.
INSTRUMENTATION_STATUS: id=AndroidJUnitRunner
INSTRUMENTATION_STATUS: test=testInput_invalid_failsRandomly
INSTRUMENTATION_STATUS: class=org.hogent.nicolas.loots.scalabletestingconcept.TestSet2
INSTRUMENTATION_STATUS: current=4
INSTRUMENTATION_STATUS_CODE: 0
INSTRUMENTATION_STATUS: numtests=14
INSTRUMENTATION_STATUS: stream=
org.hogent.nicolas.loots.scalabletestingconcept.TestSet3:
INSTRUMENTATION_STATUS: id=AndroidJUnitRunner
INSTRUMENTATION_STATUS: test=testImportAndClearPicture
INSTRUMENTATION_STATUS: class=org.hogent.nicolas.loots.scalabletestingconcept.TestSet3
INSTRUMENTATION_STATUS: current=5
INSTRUMENTATION_STATUS_CODE: 1
INSTRUMENTATION_STATUS: numtests=14
INSTRUMENTATION_STATUS: stream=.
INSTRUMENTATION_STATUS: id=AndroidJUnitRunner
INSTRUMENTATION_STATUS: test=testImportAndClearPicture
INSTRUMENTATION_STATUS: class=org.hogent.nicolas.loots.scalabletestingconcept.TestSet3
INSTRUMENTATION_STATUS: current=5
INSTRUMENTATION_STATUS_CODE: 0
INSTRUMENTATION_STATUS: numtests=14
INSTRUMENTATION_STATUS: stream=
org.hogent.nicolas.loots.scalabletestingconcept.TestSet4:
INSTRUMENTATION_STATUS: id=AndroidJUnitRunner
INSTRUMENTATION_STATUS: test=testAddItem
INSTRUMENTATION_STATUS: class=org.hogent.nicolas.loots.scalabletestingconcept.TestSet4
INSTRUMENTATION_STATUS: current=6
INSTRUMENTATION_STATUS_CODE: 1
INSTRUMENTATION_STATUS: numtests=14
INSTRUMENTATION_STATUS: stream=.
INSTRUMENTATION_STATUS: id=AndroidJUnitRunner
INSTRUMENTATION_STATUS: test=testAddItem
INSTRUMENTATION_STATUS: class=org.hogent.nicolas.loots.scalabletestingconcept.TestSet4
INSTRUMENTATION_STATUS: current=6
INSTRUMENTATION_STATUS_CODE: 0
INSTRUMENTATION_STATUS: numtests=14
INSTRUMENTATION_STATUS: stream=
INSTRUMENTATION_STATUS: id=AndroidJUnitRunner
INSTRUMENTATION_STATUS: test=testAddItem_failsRandomly
INSTRUMENTATION_STATUS: class=org.hogent.nicolas.loots.scalabletestingconcept.TestSet4
INSTRUMENTATION_STATUS: current=7
INSTRUMENTATION_STATUS_CODE: 1
INSTRUMENTATION_STATUS: numtests=14
INSTRUMENTATION_STATUS: stream=
Error in testAddItem_failsRandomly(org.hogent.nicolas.loots.scalabletestingconcept.TestSet4):
android.support.test.espresso.base.DefaultFailureHandler$AssertionFailedWithCauseError: 'with class name: is "New character"' doesn't match the selected view.
Expected: with class name: is "New character"
     Got: "ListView{id=2131230831, res-name=lv_items, visibility=VISIBLE, width=1440, height=2112, has-focus=true, has-focusable=true, has-window-focus=true, is-clickable=true, is-enabled=true, is-focused=true, is-focusable=true, is-layout-requested=false, is-selected=false, layout-params=android.support.design.widget.CoordinatorLayout$LayoutParams@64f009e, tag=null, root-is-layout-requested=false, has-input-connection=false, x=0.0, y=0.0, child-count=13}"

	at dalvik.system.VMStack.getThreadStackTrace(Native Method)
	at java.lang.Thread.getStackTrace(Thread.java:1566)
	at android.support.test.espresso.base.DefaultFailureHandler.getUserFriendlyError(DefaultFailureHandler.java:88)
	at android.support.test.espresso.base.DefaultFailureHandler.handle(DefaultFailureHandler.java:51)
	at android.support.test.espresso.ViewInteraction.waitForAndHandleInteractionResults(ViewInteraction.java:314)
	at android.support.test.espresso.ViewInteraction.check(ViewInteraction.java:297)
	at org.hogent.nicolas.loots.scalabletestingconcept.TestSet4.testAddItem_failsRandomly(TestSet4.java:93)
	at java.lang.reflect.Method.invoke(Native Method)
	at org.junit.runners.model.FrameworkMethod$1.runReflectiveCall(FrameworkMethod.java:50)
	at org.junit.internal.runners.model.ReflectiveCallable.run(ReflectiveCallable.java:12)
	at org.junit.runners.model.FrameworkMethod.invokeExplosively(FrameworkMethod.java:47)
	at org.junit.internal.runners.statements.InvokeMethod.evaluate(InvokeMethod.java:17)
	at android.support.test.rule.ActivityTestRule$ActivityStatement.evaluate(ActivityTestRule.java:527)
	at org.junit.rules.RunRules.evaluate(RunRules.java:20)
	at org.junit.runners.ParentRunner.runLeaf(ParentRunner.java:325)
	at org.junit.runners.BlockJUnit4ClassRunner.runChild(BlockJUnit4ClassRunner.java:78)
	at org.junit.runners.BlockJUnit4ClassRunner.runChild(BlockJUnit4ClassRunner.java:57)
	at org.junit.runners.ParentRunner$3.run(ParentRunner.java:290)
	at org.junit.runners.ParentRunner$1.schedule(ParentRunner.java:71)
	at org.junit.runners.ParentRunner.runChildren(ParentRunner.java:288)
	at org.junit.runners.ParentRunner.access$000(ParentRunner.java:58)
	at org.junit.runners.ParentRunner$2.evaluate(ParentRunner.java:268)
	at org.junit.runners.ParentRunner.run(ParentRunner.java:363)
	at android.support.test.runner.AndroidJUnit4.run(AndroidJUnit4.java:101)
	at org.junit.runners.Suite.runChild(Suite.java:128)
	at org.junit.runners.Suite.runChild(Suite.java:27)
	at org.junit.runners.ParentRunner$3.run(ParentRunner.java:290)
	at org.junit.runners.ParentRunner$1.schedule(ParentRunner.java:71)
	at org.junit.runners.ParentRunner.runChildren(ParentRunner.java:288)
	at org.junit.runners.ParentRunner.access$000(ParentRunner.java:58)
	at org.junit.runners.ParentRunner$2.evaluate(ParentRunner.java:268)
	at org.junit.runners.ParentRunner.run(ParentRunner.java:363)
	at org.junit.runner.JUnitCore.run(JUnitCore.java:137)
	at org.junit.runner.JUnitCore.run(JUnitCore.java:115)
	at android.support.test.internal.runner.TestExecutor.execute(TestExecutor.java:56)
	at android.support.test.runner.AndroidJUnitRunner.onStart(AndroidJUnitRunner.java:384)
	at android.app.Instrumentation$InstrumentationThread.run(Instrumentation.java:1932)
Caused by: junit.framework.AssertionFailedError: 'with class name: is "New character"' doesn't match the selected view.
Expected: with class name: is "New character"
     Got: "ListView{id=2131230831, res-name=lv_items, visibility=VISIBLE, width=1440, height=2112, has-focus=true, has-focusable=true, has-window-focus=true, is-clickable=true, is-enabled=true, is-focused=true, is-focusable=true, is-layout-requested=false, is-selected=false, layout-params=android.support.design.widget.CoordinatorLayout$LayoutParams@64f009e, tag=null, root-is-layout-requested=false, has-input-connection=false, x=0.0, y=0.0, child-count=13}"

	at android.support.test.espresso.matcher.ViewMatchers.assertThat(ViewMatchers.java:539)
	at android.support.test.espresso.assertion.ViewAssertions$MatchesViewAssertion.check(ViewAssertions.java:103)
	at android.support.test.espresso.ViewInteraction$SingleExecutionViewAssertion.check(ViewInteraction.java:415)
	at android.support.test.espresso.ViewInteraction$2.call(ViewInteraction.java:279)
	at android.support.test.espresso.ViewInteraction$2.call(ViewInteraction.java:265)
	at java.util.concurrent.FutureTask.run(FutureTask.java:237)
	at android.os.Handler.handleCallback(Handler.java:751)
	at android.os.Handler.dispatchMessage(Handler.java:95)
	at android.os.Looper.loop(Looper.java:154)
	at android.app.ActivityThread.main(ActivityThread.java:6119)
	at java.lang.reflect.Method.invoke(Native Method)
	at com.android.internal.os.ZygoteInit$MethodAndArgsCaller.run(ZygoteInit.java:886)
	at com.android.internal.os.ZygoteInit.main(ZygoteInit.java:776)

INSTRUMENTATION_STATUS: id=AndroidJUnitRunner
INSTRUMENTATION_STATUS: test=testAddItem_failsRandomly
INSTRUMENTATION_STATUS: class=org.hogent.nicolas.loots.scalabletestingconcept.TestSet4
INSTRUMENTATION_STATUS: stack=android.support.test.espresso.base.DefaultFailureHandler$AssertionFailedWithCauseError: 'with class name: is "New character"' doesn't match the selected view.
Expected: with class name: is "New character"
     Got: "ListView{id=2131230831, res-name=lv_items, visibility=VISIBLE, width=1440, height=2112, has-focus=true, has-focusable=true, has-window-focus=true, is-clickable=true, is-enabled=true, is-focused=true, is-focusable=true, is-layout-requested=false, is-selected=false, layout-params=android.support.design.widget.CoordinatorLayout$LayoutParams@64f009e, tag=null, root-is-layout-requested=false, has-input-connection=false, x=0.0, y=0.0, child-count=13}"

	at dalvik.system.VMStack.getThreadStackTrace(Native Method)
	at java.lang.Thread.getStackTrace(Thread.java:1566)
	at android.support.test.espresso.base.DefaultFailureHandler.getUserFriendlyError(DefaultFailureHandler.java:88)
	at android.support.test.espresso.base.DefaultFailureHandler.handle(DefaultFailureHandler.java:51)
	at android.support.test.espresso.ViewInteraction.waitForAndHandleInteractionResults(ViewInteraction.java:314)
	at android.support.test.espresso.ViewInteraction.check(ViewInteraction.java:297)
	at org.hogent.nicolas.loots.scalabletestingconcept.TestSet4.testAddItem_failsRandomly(TestSet4.java:93)
	at java.lang.reflect.Method.invoke(Native Method)
	at org.junit.runners.model.FrameworkMethod$1.runReflectiveCall(FrameworkMethod.java:50)
	at org.junit.internal.runners.model.ReflectiveCallable.run(ReflectiveCallable.java:12)
	at org.junit.runners.model.FrameworkMethod.invokeExplosively(FrameworkMethod.java:47)
	at org.junit.internal.runners.statements.InvokeMethod.evaluate(InvokeMethod.java:17)
	at android.support.test.rule.ActivityTestRule$ActivityStatement.evaluate(ActivityTestRule.java:527)
	at org.junit.rules.RunRules.evaluate(RunRules.java:20)
	at org.junit.runners.ParentRunner.runLeaf(ParentRunner.java:325)
	at org.junit.runners.BlockJUnit4ClassRunner.runChild(BlockJUnit4ClassRunner.java:78)
	at org.junit.runners.BlockJUnit4ClassRunner.runChild(BlockJUnit4ClassRunner.java:57)
	at org.junit.runners.ParentRunner$3.run(ParentRunner.java:290)
	at org.junit.runners.ParentRunner$1.schedule(ParentRunner.java:71)
	at org.junit.runners.ParentRunner.runChildren(ParentRunner.java:288)
	at org.junit.runners.ParentRunner.access$000(ParentRunner.java:58)
	at org.junit.runners.ParentRunner$2.evaluate(ParentRunner.java:268)
	at org.junit.runners.ParentRunner.run(ParentRunner.java:363)
	at android.support.test.runner.AndroidJUnit4.run(AndroidJUnit4.java:101)
	at org.junit.runners.Suite.runChild(Suite.java:128)
	at org.junit.runners.Suite.runChild(Suite.java:27)
	at org.junit.runners.ParentRunner$3.run(ParentRunner.java:290)
	at org.junit.runners.ParentRunner$1.schedule(ParentRunner.java:71)
	at org.junit.runners.ParentRunner.runChildren(ParentRunner.java:288)
	at org.junit.runners.ParentRunner.access$000(ParentRunner.java:58)
	at org.junit.runners.ParentRunner$2.evaluate(ParentRunner.java:268)
	at org.junit.runners.ParentRunner.run(ParentRunner.java:363)
	at org.junit.runner.JUnitCore.run(JUnitCore.java:137)
	at org.junit.runner.JUnitCore.run(JUnitCore.java:115)
	at android.support.test.internal.runner.TestExecutor.execute(TestExecutor.java:56)
	at android.support.test.runner.AndroidJUnitRunner.onStart(AndroidJUnitRunner.java:384)
	at android.app.Instrumentation$InstrumentationThread.run(Instrumentation.java:1932)
Caused by: junit.framework.AssertionFailedError: 'with class name: is "New character"' doesn't match the selected view.
Expected: with class name: is "New character"
     Got: "ListView{id=2131230831, res-name=lv_items, visibility=VISIBLE, width=1440, height=2112, has-focus=true, has-focusable=true, has-window-focus=true, is-clickable=true, is-enabled=true, is-focused=true, is-focusable=true, is-layout-requested=false, is-selected=false, layout-params=android.support.design.widget.CoordinatorLayout$LayoutParams@64f009e, tag=null, root-is-layout-requested=false, has-input-connection=false, x=0.0, y=0.0, child-count=13}"

	at android.support.test.espresso.matcher.ViewMatchers.assertThat(ViewMatchers.java:539)
	at android.support.test.espresso.assertion.ViewAssertions$MatchesViewAssertion.check(ViewAssertions.java:103)
	at android.support.test.espresso.ViewInteraction$SingleExecutionViewAssertion.check(ViewInteraction.java:415)
	at android.support.test.espresso.ViewInteraction$2.call(ViewInteraction.java:279)
	at android.support.test.espresso.ViewInteraction$2.call(ViewInteraction.java:265)
	at java.util.concurrent.FutureTask.run(FutureTask.java:237)
	at android.os.Handler.handleCallback(Handler.java:751)
	at android.os.Handler.dispatchMessage(Handler.java:95)
	at android.os.Looper.loop(Looper.java:154)
	at android.app.ActivityThread.main(ActivityThread.java:6119)
	at java.lang.reflect.Method.invoke(Native Method)
	at com.android.internal.os.ZygoteInit$MethodAndArgsCaller.run(ZygoteInit.java:886)
	at com.android.internal.os.ZygoteInit.main(ZygoteInit.java:776)

INSTRUMENTATION_STATUS: current=7
INSTRUMENTATION_STATUS_CODE: -2
INSTRUMENTATION_STATUS: numtests=14
INSTRUMENTATION_STATUS: stream=
INSTRUMENTATION_STATUS: id=AndroidJUnitRunner
INSTRUMENTATION_STATUS: test=testRemoveItem
INSTRUMENTATION_STATUS: class=org.hogent.nicolas.loots.scalabletestingconcept.TestSet4
INSTRUMENTATION_STATUS: current=8
INSTRUMENTATION_STATUS_CODE: 1
INSTRUMENTATION_STATUS: numtests=14
INSTRUMENTATION_STATUS: stream=.
INSTRUMENTATION_STATUS: id=AndroidJUnitRunner
INSTRUMENTATION_STATUS: test=testRemoveItem
INSTRUMENTATION_STATUS: class=org.hogent.nicolas.loots.scalabletestingconcept.TestSet4
INSTRUMENTATION_STATUS: current=8
INSTRUMENTATION_STATUS_CODE: 0
INSTRUMENTATION_STATUS: numtests=14
INSTRUMENTATION_STATUS: stream=
org.hogent.nicolas.loots.scalabletestingconcept.TestSet5:
INSTRUMENTATION_STATUS: id=AndroidJUnitRunner
INSTRUMENTATION_STATUS: test=testEditItem
INSTRUMENTATION_STATUS: class=org.hogent.nicolas.loots.scalabletestingconcept.TestSet5
INSTRUMENTATION_STATUS: current=9
INSTRUMENTATION_STATUS_CODE: 1
INSTRUMENTATION_STATUS: numtests=14
INSTRUMENTATION_STATUS: stream=.
INSTRUMENTATION_STATUS: id=AndroidJUnitRunner
INSTRUMENTATION_STATUS: test=testEditItem
INSTRUMENTATION_STATUS: class=org.hogent.nicolas.loots.scalabletestingconcept.TestSet5
INSTRUMENTATION_STATUS: current=9
INSTRUMENTATION_STATUS_CODE: 0
INSTRUMENTATION_STATUS: numtests=14
INSTRUMENTATION_STATUS: stream=
INSTRUMENTATION_STATUS: id=AndroidJUnitRunner
INSTRUMENTATION_STATUS: test=testAddItem_firstNameRequired
INSTRUMENTATION_STATUS: class=org.hogent.nicolas.loots.scalabletestingconcept.TestSet5
INSTRUMENTATION_STATUS: current=10
INSTRUMENTATION_STATUS_CODE: 1
INSTRUMENTATION_STATUS: numtests=14
INSTRUMENTATION_STATUS: stream=.
INSTRUMENTATION_STATUS: id=AndroidJUnitRunner
INSTRUMENTATION_STATUS: test=testAddItem_firstNameRequired
INSTRUMENTATION_STATUS: class=org.hogent.nicolas.loots.scalabletestingconcept.TestSet5
INSTRUMENTATION_STATUS: current=10
INSTRUMENTATION_STATUS_CODE: 0
INSTRUMENTATION_STATUS: numtests=14
INSTRUMENTATION_STATUS: stream=
INSTRUMENTATION_STATUS: id=AndroidJUnitRunner
INSTRUMENTATION_STATUS: test=testAddItem_invalidPhoneNumber
INSTRUMENTATION_STATUS: class=org.hogent.nicolas.loots.scalabletestingconcept.TestSet5
INSTRUMENTATION_STATUS: current=11
INSTRUMENTATION_STATUS_CODE: 1
INSTRUMENTATION_STATUS: numtests=14
INSTRUMENTATION_STATUS: stream=.
INSTRUMENTATION_STATUS: id=AndroidJUnitRunner
INSTRUMENTATION_STATUS: test=testAddItem_invalidPhoneNumber
INSTRUMENTATION_STATUS: class=org.hogent.nicolas.loots.scalabletestingconcept.TestSet5
INSTRUMENTATION_STATUS: current=11
INSTRUMENTATION_STATUS_CODE: 0
INSTRUMENTATION_STATUS: numtests=14
INSTRUMENTATION_STATUS: stream=
INSTRUMENTATION_STATUS: id=AndroidJUnitRunner
INSTRUMENTATION_STATUS: test=testRemoveItem
INSTRUMENTATION_STATUS: class=org.hogent.nicolas.loots.scalabletestingconcept.TestSet5
INSTRUMENTATION_STATUS: current=12
INSTRUMENTATION_STATUS_CODE: 1
INSTRUMENTATION_STATUS: numtests=14
INSTRUMENTATION_STATUS: stream=.
INSTRUMENTATION_STATUS: id=AndroidJUnitRunner
INSTRUMENTATION_STATUS: test=testRemoveItem
INSTRUMENTATION_STATUS: class=org.hogent.nicolas.loots.scalabletestingconcept.TestSet5
INSTRUMENTATION_STATUS: current=12
INSTRUMENTATION_STATUS_CODE: 0
INSTRUMENTATION_STATUS: numtests=14
INSTRUMENTATION_STATUS: stream=
INSTRUMENTATION_STATUS: id=AndroidJUnitRunner
INSTRUMENTATION_STATUS: test=testAddItem_lastNameRequired
INSTRUMENTATION_STATUS: class=org.hogent.nicolas.loots.scalabletestingconcept.TestSet5
INSTRUMENTATION_STATUS: current=13
INSTRUMENTATION_STATUS_CODE: 1
INSTRUMENTATION_STATUS: numtests=14
INSTRUMENTATION_STATUS: stream=.
INSTRUMENTATION_STATUS: id=AndroidJUnitRunner
INSTRUMENTATION_STATUS: test=testAddItem_lastNameRequired
INSTRUMENTATION_STATUS: class=org.hogent.nicolas.loots.scalabletestingconcept.TestSet5
INSTRUMENTATION_STATUS: current=13
INSTRUMENTATION_STATUS_CODE: 0
INSTRUMENTATION_STATUS: numtests=14
INSTRUMENTATION_STATUS: stream=
INSTRUMENTATION_STATUS: id=AndroidJUnitRunner
INSTRUMENTATION_STATUS: test=testAddItem_correctInput
INSTRUMENTATION_STATUS: class=org.hogent.nicolas.loots.scalabletestingconcept.TestSet5
INSTRUMENTATION_STATUS: current=14
INSTRUMENTATION_STATUS_CODE: 1
INSTRUMENTATION_STATUS: numtests=14
INSTRUMENTATION_STATUS: stream=.
INSTRUMENTATION_STATUS: id=AndroidJUnitRunner
INSTRUMENTATION_STATUS: test=testAddItem_correctInput
INSTRUMENTATION_STATUS: class=org.hogent.nicolas.loots.scalabletestingconcept.TestSet5
INSTRUMENTATION_STATUS: current=14
INSTRUMENTATION_STATUS_CODE: 0
INSTRUMENTATION_RESULT: stream=

Time: 42.878
There was 1 failure:
1) testAddItem_failsRandomly(org.hogent.nicolas.loots.scalabletestingconcept.TestSet4)
android.support.test.espresso.base.DefaultFailureHandler$AssertionFailedWithCauseError: 'with class name: is "New character"' doesn't match the selected view.
Expected: with class name: is "New character"
     Got: "ListView{id=2131230831, res-name=lv_items, visibility=VISIBLE, width=1440, height=2112, has-focus=true, has-focusable=true, has-window-focus=true, is-clickable=true, is-enabled=true, is-focused=true, is-focusable=true, is-layout-requested=false, is-selected=false, layout-params=android.support.design.widget.CoordinatorLayout$LayoutParams@64f009e, tag=null, root-is-layout-requested=false, has-input-connection=false, x=0.0, y=0.0, child-count=13}"

	at dalvik.system.VMStack.getThreadStackTrace(Native Method)
	at java.lang.Thread.getStackTrace(Thread.java:1566)
	at android.support.test.espresso.base.DefaultFailureHandler.getUserFriendlyError(DefaultFailureHandler.java:88)
	at android.support.test.espresso.base.DefaultFailureHandler.handle(DefaultFailureHandler.java:51)
	at android.support.test.espresso.ViewInteraction.waitForAndHandleInteractionResults(ViewInteraction.java:314)
	at android.support.test.espresso.ViewInteraction.check(ViewInteraction.java:297)
	at org.hogent.nicolas.loots.scalabletestingconcept.TestSet4.testAddItem_failsRandomly(TestSet4.java:93)
	at java.lang.reflect.Method.invoke(Native Method)
	at org.junit.runners.model.FrameworkMethod$1.runReflectiveCall(FrameworkMethod.java:50)
	at org.junit.internal.runners.model.ReflectiveCallable.run(ReflectiveCallable.java:12)
	at org.junit.runners.model.FrameworkMethod.invokeExplosively(FrameworkMethod.java:47)
	at org.junit.internal.runners.statements.InvokeMethod.evaluate(InvokeMethod.java:17)
	at android.support.test.rule.ActivityTestRule$ActivityStatement.evaluate(ActivityTestRule.java:527)
	at org.junit.rules.RunRules.evaluate(RunRules.java:20)
	at org.junit.runners.ParentRunner.runLeaf(ParentRunner.java:325)
	at org.junit.runners.BlockJUnit4ClassRunner.runChild(BlockJUnit4ClassRunner.java:78)
	at org.junit.runners.BlockJUnit4ClassRunner.runChild(BlockJUnit4ClassRunner.java:57)
	at org.junit.runners.ParentRunner$3.run(ParentRunner.java:290)
	at org.junit.runners.ParentRunner$1.schedule(ParentRunner.java:71)
	at org.junit.runners.ParentRunner.runChildren(ParentRunner.java:288)
	at org.junit.runners.ParentRunner.access$000(ParentRunner.java:58)
	at org.junit.runners.ParentRunner$2.evaluate(ParentRunner.java:268)
	at org.junit.runners.ParentRunner.run(ParentRunner.java:363)
	at android.support.test.runner.AndroidJUnit4.run(AndroidJUnit4.java:101)
	at org.junit.runners.Suite.runChild(Suite.java:128)
	at org.junit.runners.Suite.runChild(Suite.java:27)
	at org.junit.runners.ParentRunner$3.run(ParentRunner.java:290)
	at org.junit.runners.ParentRunner$1.schedule(ParentRunner.java:71)
	at org.junit.runners.ParentRunner.runChildren(ParentRunner.java:288)
	at org.junit.runners.ParentRunner.access$000(ParentRunner.java:58)
	at org.junit.runners.ParentRunner$2.evaluate(ParentRunner.java:268)
	at org.junit.runners.ParentRunner.run(ParentRunner.java:363)
	at org.junit.runner.JUnitCore.run(JUnitCore.java:137)
	at org.junit.runner.JUnitCore.run(JUnitCore.java:115)
	at android.support.test.internal.runner.TestExecutor.execute(TestExecutor.java:56)
	at android.support.test.runner.AndroidJUnitRunner.onStart(AndroidJUnitRunner.java:384)
	at android.app.Instrumentation$InstrumentationThread.run(Instrumentation.java:1932)
Caused by: junit.framework.AssertionFailedError: 'with class name: is "New character"' doesn't match the selected view.
Expected: with class name: is "New character"
     Got: "ListView{id=2131230831, res-name=lv_items, visibility=VISIBLE, width=1440, height=2112, has-focus=true, has-focusable=true, has-window-focus=true, is-clickable=true, is-enabled=true, is-focused=true, is-focusable=true, is-layout-requested=false, is-selected=false, layout-params=android.support.design.widget.CoordinatorLayout$LayoutParams@64f009e, tag=null, root-is-layout-requested=false, has-input-connection=false, x=0.0, y=0.0, child-count=13}"

	at android.support.test.espresso.matcher.ViewMatchers.assertThat(ViewMatchers.java:539)
	at android.support.test.espresso.assertion.ViewAssertions$MatchesViewAssertion.check(ViewAssertions.java:103)
	at android.support.test.espresso.ViewInteraction$SingleExecutionViewAssertion.check(ViewInteraction.java:415)
	at android.support.test.espresso.ViewInteraction$2.call(ViewInteraction.java:279)
	at android.support.test.espresso.ViewInteraction$2.call(ViewInteraction.java:265)
	at java.util.concurrent.FutureTask.run(FutureTask.java:237)
	at android.os.Handler.handleCallback(Handler.java:751)
	at android.os.Handler.dispatchMessage(Handler.java:95)
	at android.os.Looper.loop(Looper.java:154)
	at android.app.ActivityThread.main(ActivityThread.java:6119)
	at java.lang.reflect.Method.invoke(Native Method)
	at com.android.internal.os.ZygoteInit$MethodAndArgsCaller.run(ZygoteInit.java:886)
	at com.android.internal.os.ZygoteInit.main(ZygoteInit.java:776)

FAILURES!!!
Tests run: 14,  Failures: 1


INSTRUMENTATION_CODE: -1
