INSTRUMENTATION_STATUS: numtests=14
INSTRUMENTATION_STATUS: stream=
org.hogent.nicolas.loots.scalabletestingconcept.TestSet1:
INSTRUMENTATION_STATUS: id=AndroidJUnitRunner
INSTRUMENTATION_STATUS: test=testOpenActivity
INSTRUMENTATION_STATUS: class=org.hogent.nicolas.loots.scalabletestingconcept.TestSet1
INSTRUMENTATION_STATUS: current=1
INSTRUMENTATION_STATUS_CODE: 1
INSTRUMENTATION_STATUS: numtests=14
INSTRUMENTATION_STATUS: stream=.
INSTRUMENTATION_STATUS: id=AndroidJUnitRunner
INSTRUMENTATION_STATUS: test=testOpenActivity
INSTRUMENTATION_STATUS: class=org.hogent.nicolas.loots.scalabletestingconcept.TestSet1
INSTRUMENTATION_STATUS: current=1
INSTRUMENTATION_STATUS_CODE: 0
INSTRUMENTATION_STATUS: numtests=14
INSTRUMENTATION_STATUS: stream=
org.hogent.nicolas.loots.scalabletestingconcept.TestSet2:
INSTRUMENTATION_STATUS: id=AndroidJUnitRunner
INSTRUMENTATION_STATUS: test=testInput_invalid
INSTRUMENTATION_STATUS: class=org.hogent.nicolas.loots.scalabletestingconcept.TestSet2
INSTRUMENTATION_STATUS: current=2
INSTRUMENTATION_STATUS_CODE: 1
INSTRUMENTATION_STATUS: numtests=14
INSTRUMENTATION_STATUS: stream=.
INSTRUMENTATION_STATUS: id=AndroidJUnitRunner
INSTRUMENTATION_STATUS: test=testInput_invalid
INSTRUMENTATION_STATUS: class=org.hogent.nicolas.loots.scalabletestingconcept.TestSet2
INSTRUMENTATION_STATUS: current=2
INSTRUMENTATION_STATUS_CODE: 0
INSTRUMENTATION_STATUS: numtests=14
INSTRUMENTATION_STATUS: stream=
INSTRUMENTATION_STATUS: id=AndroidJUnitRunner
INSTRUMENTATION_STATUS: test=testInput_valid
INSTRUMENTATION_STATUS: class=org.hogent.nicolas.loots.scalabletestingconcept.TestSet2
INSTRUMENTATION_STATUS: current=3
INSTRUMENTATION_STATUS_CODE: 1
INSTRUMENTATION_STATUS: numtests=14
INSTRUMENTATION_STATUS: stream=.
INSTRUMENTATION_STATUS: id=AndroidJUnitRunner
INSTRUMENTATION_STATUS: test=testInput_valid
INSTRUMENTATION_STATUS: class=org.hogent.nicolas.loots.scalabletestingconcept.TestSet2
INSTRUMENTATION_STATUS: current=3
INSTRUMENTATION_STATUS_CODE: 0
INSTRUMENTATION_STATUS: numtests=14
INSTRUMENTATION_STATUS: stream=
INSTRUMENTATION_STATUS: id=AndroidJUnitRunner
INSTRUMENTATION_STATUS: test=testInput_invalid_failsRandomly
INSTRUMENTATION_STATUS: class=org.hogent.nicolas.loots.scalabletestingconcept.TestSet2
INSTRUMENTATION_STATUS: current=4
INSTRUMENTATION_STATUS_CODE: 1
INSTRUMENTATION_STATUS: numtests=14
INSTRUMENTATION_STATUS: stream=
Error in testInput_invalid_failsRandomly(org.hogent.nicolas.loots.scalabletestingconcept.TestSet2):
android.support.test.espresso.NoMatchingViewException: No views in hierarchy found matching: with string from resource id: <2131492920>[success] value: Success

View Hierarchy:
+>DecorView{id=-1, visibility=VISIBLE, width=1536, height=2048, has-focus=true, has-focusable=true, has-window-focus=true, is-clickable=false, is-enabled=true, is-focused=false, is-focusable=false, is-layout-requested=false, is-selected=false, layout-params=WM.LayoutParams{(0,0)(fillxfill) ty=1 fl=#81810100 pfl=0x20000 wanim=0x1030465 needsMenuKey=2}, tag=null, root-is-layout-requested=false, has-input-connection=false, x=0.0, y=0.0, child-count=2} 
|
+->LinearLayout{id=-1, visibility=VISIBLE, width=1536, height=2048, has-focus=true, has-focusable=true, has-window-focus=true, is-clickable=false, is-enabled=true, is-focused=false, is-focusable=false, is-layout-requested=false, is-selected=false, layout-params=android.widget.FrameLayout$LayoutParams@e5e81c0, tag=null, root-is-layout-requested=false, has-input-connection=false, x=0.0, y=0.0, child-count=2} 
|
+-->ViewStub{id=16909352, res-name=action_mode_bar_stub, visibility=GONE, width=0, height=0, has-focus=false, has-focusable=false, has-window-focus=true, is-clickable=false, is-enabled=true, is-focused=false, is-focusable=false, is-layout-requested=true, is-selected=false, layout-params=android.widget.LinearLayout$LayoutParams@445eef9, tag=null, root-is-layout-requested=false, has-input-connection=false, x=0.0, y=0.0} 
|
+-->FrameLayout{id=-1, visibility=VISIBLE, width=1536, height=2000, has-focus=true, has-focusable=true, has-window-focus=true, is-clickable=false, is-enabled=true, is-focused=false, is-focusable=false, is-layout-requested=false, is-selected=false, layout-params=android.widget.LinearLayout$LayoutParams@1dee49f, tag=null, root-is-layout-requested=false, has-input-connection=false, x=0.0, y=48.0, child-count=1} 
|
+--->ActionBarOverlayLayout{id=2131230783, res-name=decor_content_parent, visibility=VISIBLE, width=1536, height=2000, has-focus=true, has-focusable=true, has-window-focus=true, is-clickable=false, is-enabled=true, is-focused=false, is-focusable=false, is-layout-requested=false, is-selected=false, layout-params=android.widget.FrameLayout$LayoutParams@b23904a, tag=null, root-is-layout-requested=false, has-input-connection=false, x=0.0, y=0.0, child-count=2} 
|
+---->ContentFrameLayout{id=16908290, res-name=content, visibility=VISIBLE, width=1536, height=1872, has-focus=true, has-focusable=true, has-window-focus=true, is-clickable=false, is-enabled=true, is-focused=false, is-focusable=false, is-layout-requested=false, is-selected=false, layout-params=android.support.v7.widget.ActionBarOverlayLayout$LayoutParams@d12c8d8, tag=null, root-is-layout-requested=false, has-input-connection=false, x=0.0, y=128.0, child-count=1} 
|
+----->LinearLayout{id=-1, visibility=VISIBLE, width=1536, height=1872, has-focus=true, has-focusable=true, has-window-focus=true, is-clickable=false, is-enabled=true, is-focused=false, is-focusable=false, is-layout-requested=false, is-selected=false, layout-params=android.widget.FrameLayout$LayoutParams@242c897, tag=null, root-is-layout-requested=false, has-input-connection=false, x=0.0, y=0.0, child-count=2} 
|
+------>LinearLayout{id=-1, visibility=VISIBLE, width=1536, height=100, has-focus=true, has-focusable=true, has-window-focus=true, is-clickable=false, is-enabled=true, is-focused=false, is-focusable=false, is-layout-requested=false, is-selected=false, layout-params=android.widget.LinearLayout$LayoutParams@d45dea2, tag=null, root-is-layout-requested=false, has-input-connection=false, x=0.0, y=0.0, child-count=2} 
|
+------->AppCompatEditText{id=2131230793, res-name=editText_test2, visibility=VISIBLE, width=1360, height=100, has-focus=true, has-focusable=true, has-window-focus=true, is-clickable=true, is-enabled=true, is-focused=true, is-focusable=true, is-layout-requested=false, is-selected=false, layout-params=android.widget.LinearLayout$LayoutParams@e038869, tag=null, root-is-layout-requested=false, has-input-connection=true, editor-info=[inputType=0x61 imeOptions=0x6 privateImeOptions=null actionLabel=null actionId=0 initialSelStart=24 initialSelEnd=24 initialCapsMode=0x0 hintText=Type something here label=null packageName=null fieldId=0 fieldName=null extras=null hintLocales=null ], x=0.0, y=0.0, text=This test fails randomly, hint=Type something here, input-type=97, ime-target=true, has-links=false} 
|
+------->AppCompatButton{id=2131230759, res-name=btn_confirm, visibility=VISIBLE, width=176, height=96, has-focus=false, has-focusable=true, has-window-focus=true, is-clickable=true, is-enabled=true, is-focused=false, is-focusable=true, is-layout-requested=false, is-selected=false, layout-params=android.widget.LinearLayout$LayoutParams@54742ee, tag=null, root-is-layout-requested=false, has-input-connection=false, x=1360.0, y=4.0, text=OK, input-type=0, ime-target=false, has-links=false} 
|
+------>AppCompatTextView{id=2131230856, res-name=resultText_test2, visibility=VISIBLE, width=1536, height=54, has-focus=false, has-focusable=false, has-window-focus=true, is-clickable=false, is-enabled=true, is-focused=false, is-focusable=false, is-layout-requested=false, is-selected=false, layout-params=android.widget.LinearLayout$LayoutParams@7d0338f, tag=null, root-is-layout-requested=false, has-input-connection=false, x=0.0, y=100.0, text=Failure, input-type=0, ime-target=false, has-links=false} 
|
+---->ActionBarContainer{id=2131230729, res-name=action_bar_container, visibility=VISIBLE, width=1536, height=128, has-focus=false, has-focusable=false, has-window-focus=true, is-clickable=false, is-enabled=true, is-focused=false, is-focusable=false, is-layout-requested=false, is-selected=false, layout-params=android.support.v7.widget.ActionBarOverlayLayout$LayoutParams@fe89ffa, tag=null, root-is-layout-requested=false, has-input-connection=false, x=0.0, y=0.0, child-count=2} 
|
+----->Toolbar{id=2131230727, res-name=action_bar, visibility=VISIBLE, width=1536, height=128, has-focus=false, has-focusable=false, has-window-focus=true, is-clickable=false, is-enabled=true, is-focused=false, is-focusable=false, is-layout-requested=false, is-selected=false, layout-params=android.widget.FrameLayout$LayoutParams@810c1c6, tag=null, root-is-layout-requested=false, has-input-connection=false, x=0.0, y=0.0, child-count=3} 
|
+------>AppCompatTextView{id=-1, visibility=VISIBLE, width=449, height=54, has-focus=false, has-focusable=false, has-window-focus=true, is-clickable=false, is-enabled=true, is-focused=false, is-focusable=false, is-layout-requested=false, is-selected=false, layout-params=android.support.v7.widget.Toolbar$LayoutParams@f510587, tag=null, root-is-layout-requested=false, has-input-connection=false, x=160.0, y=37.0, text=Scalable Testing concept, input-type=0, ime-target=false, has-links=false} 
|
+------>AppCompatImageButton{id=-1, desc=Navigate up, visibility=VISIBLE, width=112, height=128, has-focus=false, has-focusable=false, has-window-focus=true, is-clickable=true, is-enabled=true, is-focused=false, is-focusable=true, is-layout-requested=false, is-selected=false, layout-params=android.support.v7.widget.Toolbar$LayoutParams@298acb4, tag=null, root-is-layout-requested=false, has-input-connection=false, x=16.0, y=0.0} 
|
+------>ActionMenuView{id=-1, visibility=VISIBLE, width=0, height=128, has-focus=false, has-focusable=false, has-window-focus=true, is-clickable=false, is-enabled=true, is-focused=false, is-focusable=false, is-layout-requested=false, is-selected=false, layout-params=android.support.v7.widget.Toolbar$LayoutParams@6d890dd, tag=null, root-is-layout-requested=false, has-input-connection=false, x=1520.0, y=0.0, child-count=0} 
|
+----->ActionBarContextView{id=2131230735, res-name=action_context_bar, visibility=GONE, width=0, height=0, has-focus=false, has-focusable=false, has-window-focus=true, is-clickable=false, is-enabled=true, is-focused=false, is-focusable=false, is-layout-requested=true, is-selected=false, layout-params=android.widget.FrameLayout$LayoutParams@e473452, tag=null, root-is-layout-requested=false, has-input-connection=false, x=0.0, y=0.0, child-count=0} 
|
+->View{id=16908335, res-name=statusBarBackground, visibility=VISIBLE, width=1536, height=48, has-focus=false, has-focusable=false, has-window-focus=true, is-clickable=false, is-enabled=true, is-focused=false, is-focusable=false, is-layout-requested=false, is-selected=false, layout-params=android.widget.FrameLayout$LayoutParams@fae7323, tag=null, root-is-layout-requested=false, has-input-connection=false, x=0.0, y=0.0} 
|
	at dalvik.system.VMStack.getThreadStackTrace(Native Method)
	at java.lang.Thread.getStackTrace(Thread.java:1566)
	at android.support.test.espresso.base.DefaultFailureHandler.getUserFriendlyError(DefaultFailureHandler.java:88)
	at android.support.test.espresso.base.DefaultFailureHandler.handle(DefaultFailureHandler.java:51)
	at android.support.test.espresso.ViewInteraction.waitForAndHandleInteractionResults(ViewInteraction.java:312)
	at android.support.test.espresso.ViewInteraction.check(ViewInteraction.java:297)
	at org.hogent.nicolas.loots.scalabletestingconcept.TestSet2.testInput(TestSet2.java:48)
	at org.hogent.nicolas.loots.scalabletestingconcept.TestSet2.testInput_invalid_failsRandomly(TestSet2.java:41)
	at java.lang.reflect.Method.invoke(Native Method)
	at org.junit.runners.model.FrameworkMethod$1.runReflectiveCall(FrameworkMethod.java:50)
	at org.junit.internal.runners.model.ReflectiveCallable.run(ReflectiveCallable.java:12)
	at org.junit.runners.model.FrameworkMethod.invokeExplosively(FrameworkMethod.java:47)
	at org.junit.internal.runners.statements.InvokeMethod.evaluate(InvokeMethod.java:17)
	at android.support.test.rule.ActivityTestRule$ActivityStatement.evaluate(ActivityTestRule.java:527)
	at org.junit.rules.RunRules.evaluate(RunRules.java:20)
	at org.junit.runners.ParentRunner.runLeaf(ParentRunner.java:325)
	at org.junit.runners.BlockJUnit4ClassRunner.runChild(BlockJUnit4ClassRunner.java:78)
	at org.junit.runners.BlockJUnit4ClassRunner.runChild(BlockJUnit4ClassRunner.java:57)
	at org.junit.runners.ParentRunner$3.run(ParentRunner.java:290)
	at org.junit.runners.ParentRunner$1.schedule(ParentRunner.java:71)
	at org.junit.runners.ParentRunner.runChildren(ParentRunner.java:288)
	at org.junit.runners.ParentRunner.access$000(ParentRunner.java:58)
	at org.junit.runners.ParentRunner$2.evaluate(ParentRunner.java:268)
	at org.junit.runners.ParentRunner.run(ParentRunner.java:363)
	at android.support.test.runner.AndroidJUnit4.run(AndroidJUnit4.java:101)
	at org.junit.runners.Suite.runChild(Suite.java:128)
	at org.junit.runners.Suite.runChild(Suite.java:27)
	at org.junit.runners.ParentRunner$3.run(ParentRunner.java:290)
	at org.junit.runners.ParentRunner$1.schedule(ParentRunner.java:71)
	at org.junit.runners.ParentRunner.runChildren(ParentRunner.java:288)
	at org.junit.runners.ParentRunner.access$000(ParentRunner.java:58)
	at org.junit.runners.ParentRunner$2.evaluate(ParentRunner.java:268)
	at org.junit.runners.ParentRunner.run(ParentRunner.java:363)
	at org.junit.runner.JUnitCore.run(JUnitCore.java:137)
	at org.junit.runner.JUnitCore.run(JUnitCore.java:115)
	at android.support.test.internal.runner.TestExecutor.execute(TestExecutor.java:56)
	at android.support.test.runner.AndroidJUnitRunner.onStart(AndroidJUnitRunner.java:384)
	at android.app.Instrumentation$InstrumentationThread.run(Instrumentation.java:1932)

INSTRUMENTATION_STATUS: id=AndroidJUnitRunner
INSTRUMENTATION_STATUS: test=testInput_invalid_failsRandomly
INSTRUMENTATION_STATUS: class=org.hogent.nicolas.loots.scalabletestingconcept.TestSet2
INSTRUMENTATION_STATUS: stack=android.support.test.espresso.NoMatchingViewException: No views in hierarchy found matching: with string from resource id: <2131492920>[success] value: Success

View Hierarchy:
+>DecorView{id=-1, visibility=VISIBLE, width=1536, height=2048, has-focus=true, has-focusable=true, has-window-focus=true, is-clickable=false, is-enabled=true, is-focused=false, is-focusable=false, is-layout-requested=false, is-selected=false, layout-params=WM.LayoutParams{(0,0)(fillxfill) ty=1 fl=#81810100 pfl=0x20000 wanim=0x1030465 needsMenuKey=2}, tag=null, root-is-layout-requested=false, has-input-connection=false, x=0.0, y=0.0, child-count=2} 
|
+->LinearLayout{id=-1, visibility=VISIBLE, width=1536, height=2048, has-focus=true, has-focusable=true, has-window-focus=true, is-clickable=false, is-enabled=true, is-focused=false, is-focusable=false, is-layout-requested=false, is-selected=false, layout-params=android.widget.FrameLayout$LayoutParams@e5e81c0, tag=null, root-is-layout-requested=false, has-input-connection=false, x=0.0, y=0.0, child-count=2} 
|
+-->ViewStub{id=16909352, res-name=action_mode_bar_stub, visibility=GONE, width=0, height=0, has-focus=false, has-focusable=false, has-window-focus=true, is-clickable=false, is-enabled=true, is-focused=false, is-focusable=false, is-layout-requested=true, is-selected=false, layout-params=android.widget.LinearLayout$LayoutParams@445eef9, tag=null, root-is-layout-requested=false, has-input-connection=false, x=0.0, y=0.0} 
|
+-->FrameLayout{id=-1, visibility=VISIBLE, width=1536, height=2000, has-focus=true, has-focusable=true, has-window-focus=true, is-clickable=false, is-enabled=true, is-focused=false, is-focusable=false, is-layout-requested=false, is-selected=false, layout-params=android.widget.LinearLayout$LayoutParams@1dee49f, tag=null, root-is-layout-requested=false, has-input-connection=false, x=0.0, y=48.0, child-count=1} 
|
+--->ActionBarOverlayLayout{id=2131230783, res-name=decor_content_parent, visibility=VISIBLE, width=1536, height=2000, has-focus=true, has-focusable=true, has-window-focus=true, is-clickable=false, is-enabled=true, is-focused=false, is-focusable=false, is-layout-requested=false, is-selected=false, layout-params=android.widget.FrameLayout$LayoutParams@b23904a, tag=null, root-is-layout-requested=false, has-input-connection=false, x=0.0, y=0.0, child-count=2} 
|
+---->ContentFrameLayout{id=16908290, res-name=content, visibility=VISIBLE, width=1536, height=1872, has-focus=true, has-focusable=true, has-window-focus=true, is-clickable=false, is-enabled=true, is-focused=false, is-focusable=false, is-layout-requested=false, is-selected=false, layout-params=android.support.v7.widget.ActionBarOverlayLayout$LayoutParams@d12c8d8, tag=null, root-is-layout-requested=false, has-input-connection=false, x=0.0, y=128.0, child-count=1} 
|
+----->LinearLayout{id=-1, visibility=VISIBLE, width=1536, height=1872, has-focus=true, has-focusable=true, has-window-focus=true, is-clickable=false, is-enabled=true, is-focused=false, is-focusable=false, is-layout-requested=false, is-selected=false, layout-params=android.widget.FrameLayout$LayoutParams@242c897, tag=null, root-is-layout-requested=false, has-input-connection=false, x=0.0, y=0.0, child-count=2} 
|
+------>LinearLayout{id=-1, visibility=VISIBLE, width=1536, height=100, has-focus=true, has-focusable=true, has-window-focus=true, is-clickable=false, is-enabled=true, is-focused=false, is-focusable=false, is-layout-requested=false, is-selected=false, layout-params=android.widget.LinearLayout$LayoutParams@d45dea2, tag=null, root-is-layout-requested=false, has-input-connection=false, x=0.0, y=0.0, child-count=2} 
|
+------->AppCompatEditText{id=2131230793, res-name=editText_test2, visibility=VISIBLE, width=1360, height=100, has-focus=true, has-focusable=true, has-window-focus=true, is-clickable=true, is-enabled=true, is-focused=true, is-focusable=true, is-layout-requested=false, is-selected=false, layout-params=android.widget.LinearLayout$LayoutParams@e038869, tag=null, root-is-layout-requested=false, has-input-connection=true, editor-info=[inputType=0x61 imeOptions=0x6 privateImeOptions=null actionLabel=null actionId=0 initialSelStart=24 initialSelEnd=24 initialCapsMode=0x0 hintText=Type something here label=null packageName=null fieldId=0 fieldName=null extras=null hintLocales=null ], x=0.0, y=0.0, text=This test fails randomly, hint=Type something here, input-type=97, ime-target=true, has-links=false} 
|
+------->AppCompatButton{id=2131230759, res-name=btn_confirm, visibility=VISIBLE, width=176, height=96, has-focus=false, has-focusable=true, has-window-focus=true, is-clickable=true, is-enabled=true, is-focused=false, is-focusable=true, is-layout-requested=false, is-selected=false, layout-params=android.widget.LinearLayout$LayoutParams@54742ee, tag=null, root-is-layout-requested=false, has-input-connection=false, x=1360.0, y=4.0, text=OK, input-type=0, ime-target=false, has-links=false} 
|
+------>AppCompatTextView{id=2131230856, res-name=resultText_test2, visibility=VISIBLE, width=1536, height=54, has-focus=false, has-focusable=false, has-window-focus=true, is-clickable=false, is-enabled=true, is-focused=false, is-focusable=false, is-layout-requested=false, is-selected=false, layout-params=android.widget.LinearLayout$LayoutParams@7d0338f, tag=null, root-is-layout-requested=false, has-input-connection=false, x=0.0, y=100.0, text=Failure, input-type=0, ime-target=false, has-links=false} 
|
+---->ActionBarContainer{id=2131230729, res-name=action_bar_container, visibility=VISIBLE, width=1536, height=128, has-focus=false, has-focusable=false, has-window-focus=true, is-clickable=false, is-enabled=true, is-focused=false, is-focusable=false, is-layout-requested=false, is-selected=false, layout-params=android.support.v7.widget.ActionBarOverlayLayout$LayoutParams@fe89ffa, tag=null, root-is-layout-requested=false, has-input-connection=false, x=0.0, y=0.0, child-count=2} 
|
+----->Toolbar{id=2131230727, res-name=action_bar, visibility=VISIBLE, width=1536, height=128, has-focus=false, has-focusable=false, has-window-focus=true, is-clickable=false, is-enabled=true, is-focused=false, is-focusable=false, is-layout-requested=false, is-selected=false, layout-params=android.widget.FrameLayout$LayoutParams@810c1c6, tag=null, root-is-layout-requested=false, has-input-connection=false, x=0.0, y=0.0, child-count=3} 
|
+------>AppCompatTextView{id=-1, visibility=VISIBLE, width=449, height=54, has-focus=false, has-focusable=false, has-window-focus=true, is-clickable=false, is-enabled=true, is-focused=false, is-focusable=false, is-layout-requested=false, is-selected=false, layout-params=android.support.v7.widget.Toolbar$LayoutParams@f510587, tag=null, root-is-layout-requested=false, has-input-connection=false, x=160.0, y=37.0, text=Scalable Testing concept, input-type=0, ime-target=false, has-links=false} 
|
+------>AppCompatImageButton{id=-1, desc=Navigate up, visibility=VISIBLE, width=112, height=128, has-focus=false, has-focusable=false, has-window-focus=true, is-clickable=true, is-enabled=true, is-focused=false, is-focusable=true, is-layout-requested=false, is-selected=false, layout-params=android.support.v7.widget.Toolbar$LayoutParams@298acb4, tag=null, root-is-layout-requested=false, has-input-connection=false, x=16.0, y=0.0} 
|
+------>ActionMenuView{id=-1, visibility=VISIBLE, width=0, height=128, has-focus=false, has-focusable=false, has-window-focus=true, is-clickable=false, is-enabled=true, is-focused=false, is-focusable=false, is-layout-requested=false, is-selected=false, layout-params=android.support.v7.widget.Toolbar$LayoutParams@6d890dd, tag=null, root-is-layout-requested=false, has-input-connection=false, x=1520.0, y=0.0, child-count=0} 
|
+----->ActionBarContextView{id=2131230735, res-name=action_context_bar, visibility=GONE, width=0, height=0, has-focus=false, has-focusable=false, has-window-focus=true, is-clickable=false, is-enabled=true, is-focused=false, is-focusable=false, is-layout-requested=true, is-selected=false, layout-params=android.widget.FrameLayout$LayoutParams@e473452, tag=null, root-is-layout-requested=false, has-input-connection=false, x=0.0, y=0.0, child-count=0} 
|
+->View{id=16908335, res-name=statusBarBackground, visibility=VISIBLE, width=1536, height=48, has-focus=false, has-focusable=false, has-window-focus=true, is-clickable=false, is-enabled=true, is-focused=false, is-focusable=false, is-layout-requested=false, is-selected=false, layout-params=android.widget.FrameLayout$LayoutParams@fae7323, tag=null, root-is-layout-requested=false, has-input-connection=false, x=0.0, y=0.0} 
|
	at dalvik.system.VMStack.getThreadStackTrace(Native Method)
	at java.lang.Thread.getStackTrace(Thread.java:1566)
	at android.support.test.espresso.base.DefaultFailureHandler.getUserFriendlyError(DefaultFailureHandler.java:88)
	at android.support.test.espresso.base.DefaultFailureHandler.handle(DefaultFailureHandler.java:51)
	at android.support.test.espresso.ViewInteraction.waitForAndHandleInteractionResults(ViewInteraction.java:312)
	at android.support.test.espresso.ViewInteraction.check(ViewInteraction.java:297)
	at org.hogent.nicolas.loots.scalabletestingconcept.TestSet2.testInput(TestSet2.java:48)
	at org.hogent.nicolas.loots.scalabletestingconcept.TestSet2.testInput_invalid_failsRandomly(TestSet2.java:41)
	at java.lang.reflect.Method.invoke(Native Method)
	at org.junit.runners.model.FrameworkMethod$1.runReflectiveCall(FrameworkMethod.java:50)
	at org.junit.internal.runners.model.ReflectiveCallable.run(ReflectiveCallable.java:12)
	at org.junit.runners.model.FrameworkMethod.invokeExplosively(FrameworkMethod.java:47)
	at org.junit.internal.runners.statements.InvokeMethod.evaluate(InvokeMethod.java:17)
	at android.support.test.rule.ActivityTestRule$ActivityStatement.evaluate(ActivityTestRule.java:527)
	at org.junit.rules.RunRules.evaluate(RunRules.java:20)
	at org.junit.runners.ParentRunner.runLeaf(ParentRunner.java:325)
	at org.junit.runners.BlockJUnit4ClassRunner.runChild(BlockJUnit4ClassRunner.java:78)
	at org.junit.runners.BlockJUnit4ClassRunner.runChild(BlockJUnit4ClassRunner.java:57)
	at org.junit.runners.ParentRunner$3.run(ParentRunner.java:290)
	at org.junit.runners.ParentRunner$1.schedule(ParentRunner.java:71)
	at org.junit.runners.ParentRunner.runChildren(ParentRunner.java:288)
	at org.junit.runners.ParentRunner.access$000(ParentRunner.java:58)
	at org.junit.runners.ParentRunner$2.evaluate(ParentRunner.java:268)
	at org.junit.runners.ParentRunner.run(ParentRunner.java:363)
	at android.support.test.runner.AndroidJUnit4.run(AndroidJUnit4.java:101)
	at org.junit.runners.Suite.runChild(Suite.java:128)
	at org.junit.runners.Suite.runChild(Suite.java:27)
	at org.junit.runners.ParentRunner$3.run(ParentRunner.java:290)
	at org.junit.runners.ParentRunner$1.schedule(ParentRunner.java:71)
	at org.junit.runners.ParentRunner.runChildren(ParentRunner.java:288)
	at org.junit.runners.ParentRunner.access$000(ParentRunner.java:58)
	at org.junit.runners.ParentRunner$2.evaluate(ParentRunner.java:268)
	at org.junit.runners.ParentRunner.run(ParentRunner.java:363)
	at org.junit.runner.JUnitCore.run(JUnitCore.java:137)
	at org.junit.runner.JUnitCore.run(JUnitCore.java:115)
	at android.support.test.internal.runner.TestExecutor.execute(TestExecutor.java:56)
	at android.support.test.runner.AndroidJUnitRunner.onStart(AndroidJUnitRunner.java:384)
	at android.app.Instrumentation$InstrumentationThread.run(Instrumentation.java:1932)

INSTRUMENTATION_STATUS: current=4
INSTRUMENTATION_STATUS_CODE: -2
INSTRUMENTATION_STATUS: numtests=14
INSTRUMENTATION_STATUS: stream=
org.hogent.nicolas.loots.scalabletestingconcept.TestSet3:
INSTRUMENTATION_STATUS: id=AndroidJUnitRunner
INSTRUMENTATION_STATUS: test=testImportAndClearPicture
INSTRUMENTATION_STATUS: class=org.hogent.nicolas.loots.scalabletestingconcept.TestSet3
INSTRUMENTATION_STATUS: current=5
INSTRUMENTATION_STATUS_CODE: 1
INSTRUMENTATION_STATUS: numtests=14
INSTRUMENTATION_STATUS: stream=.
INSTRUMENTATION_STATUS: id=AndroidJUnitRunner
INSTRUMENTATION_STATUS: test=testImportAndClearPicture
INSTRUMENTATION_STATUS: class=org.hogent.nicolas.loots.scalabletestingconcept.TestSet3
INSTRUMENTATION_STATUS: current=5
INSTRUMENTATION_STATUS_CODE: 0
INSTRUMENTATION_STATUS: numtests=14
INSTRUMENTATION_STATUS: stream=
org.hogent.nicolas.loots.scalabletestingconcept.TestSet4:
INSTRUMENTATION_STATUS: id=AndroidJUnitRunner
INSTRUMENTATION_STATUS: test=testAddItem
INSTRUMENTATION_STATUS: class=org.hogent.nicolas.loots.scalabletestingconcept.TestSet4
INSTRUMENTATION_STATUS: current=6
INSTRUMENTATION_STATUS_CODE: 1
INSTRUMENTATION_STATUS: numtests=14
INSTRUMENTATION_STATUS: stream=.
INSTRUMENTATION_STATUS: id=AndroidJUnitRunner
INSTRUMENTATION_STATUS: test=testAddItem
INSTRUMENTATION_STATUS: class=org.hogent.nicolas.loots.scalabletestingconcept.TestSet4
INSTRUMENTATION_STATUS: current=6
INSTRUMENTATION_STATUS_CODE: 0
INSTRUMENTATION_STATUS: numtests=14
INSTRUMENTATION_STATUS: stream=
INSTRUMENTATION_STATUS: id=AndroidJUnitRunner
INSTRUMENTATION_STATUS: test=testAddItem_failsRandomly
INSTRUMENTATION_STATUS: class=org.hogent.nicolas.loots.scalabletestingconcept.TestSet4
INSTRUMENTATION_STATUS: current=7
INSTRUMENTATION_STATUS_CODE: 1
INSTRUMENTATION_STATUS: numtests=14
INSTRUMENTATION_STATUS: stream=
Error in testAddItem_failsRandomly(org.hogent.nicolas.loots.scalabletestingconcept.TestSet4):
android.support.test.espresso.base.DefaultFailureHandler$AssertionFailedWithCauseError: 'with class name: is "New character"' doesn't match the selected view.
Expected: with class name: is "New character"
     Got: "ListView{id=2131230831, res-name=lv_items, visibility=VISIBLE, width=1536, height=1872, has-focus=true, has-focusable=true, has-window-focus=true, is-clickable=true, is-enabled=true, is-focused=true, is-focusable=true, is-layout-requested=false, is-selected=false, layout-params=android.support.design.widget.CoordinatorLayout$LayoutParams@528a78b, tag=null, root-is-layout-requested=false, has-input-connection=false, x=0.0, y=0.0, child-count=20}"

	at dalvik.system.VMStack.getThreadStackTrace(Native Method)
	at java.lang.Thread.getStackTrace(Thread.java:1566)
	at android.support.test.espresso.base.DefaultFailureHandler.getUserFriendlyError(DefaultFailureHandler.java:88)
	at android.support.test.espresso.base.DefaultFailureHandler.handle(DefaultFailureHandler.java:51)
	at android.support.test.espresso.ViewInteraction.waitForAndHandleInteractionResults(ViewInteraction.java:314)
	at android.support.test.espresso.ViewInteraction.check(ViewInteraction.java:297)
	at org.hogent.nicolas.loots.scalabletestingconcept.TestSet4.testAddItem_failsRandomly(TestSet4.java:93)
	at java.lang.reflect.Method.invoke(Native Method)
	at org.junit.runners.model.FrameworkMethod$1.runReflectiveCall(FrameworkMethod.java:50)
	at org.junit.internal.runners.model.ReflectiveCallable.run(ReflectiveCallable.java:12)
	at org.junit.runners.model.FrameworkMethod.invokeExplosively(FrameworkMethod.java:47)
	at org.junit.internal.runners.statements.InvokeMethod.evaluate(InvokeMethod.java:17)
	at android.support.test.rule.ActivityTestRule$ActivityStatement.evaluate(ActivityTestRule.java:527)
	at org.junit.rules.RunRules.evaluate(RunRules.java:20)
	at org.junit.runners.ParentRunner.runLeaf(ParentRunner.java:325)
	at org.junit.runners.BlockJUnit4ClassRunner.runChild(BlockJUnit4ClassRunner.java:78)
	at org.junit.runners.BlockJUnit4ClassRunner.runChild(BlockJUnit4ClassRunner.java:57)
	at org.junit.runners.ParentRunner$3.run(ParentRunner.java:290)
	at org.junit.runners.ParentRunner$1.schedule(ParentRunner.java:71)
	at org.junit.runners.ParentRunner.runChildren(ParentRunner.java:288)
	at org.junit.runners.ParentRunner.access$000(ParentRunner.java:58)
	at org.junit.runners.ParentRunner$2.evaluate(ParentRunner.java:268)
	at org.junit.runners.ParentRunner.run(ParentRunner.java:363)
	at android.support.test.runner.AndroidJUnit4.run(AndroidJUnit4.java:101)
	at org.junit.runners.Suite.runChild(Suite.java:128)
	at org.junit.runners.Suite.runChild(Suite.java:27)
	at org.junit.runners.ParentRunner$3.run(ParentRunner.java:290)
	at org.junit.runners.ParentRunner$1.schedule(ParentRunner.java:71)
	at org.junit.runners.ParentRunner.runChildren(ParentRunner.java:288)
	at org.junit.runners.ParentRunner.access$000(ParentRunner.java:58)
	at org.junit.runners.ParentRunner$2.evaluate(ParentRunner.java:268)
	at org.junit.runners.ParentRunner.run(ParentRunner.java:363)
	at org.junit.runner.JUnitCore.run(JUnitCore.java:137)
	at org.junit.runner.JUnitCore.run(JUnitCore.java:115)
	at android.support.test.internal.runner.TestExecutor.execute(TestExecutor.java:56)
	at android.support.test.runner.AndroidJUnitRunner.onStart(AndroidJUnitRunner.java:384)
	at android.app.Instrumentation$InstrumentationThread.run(Instrumentation.java:1932)
Caused by: junit.framework.AssertionFailedError: 'with class name: is "New character"' doesn't match the selected view.
Expected: with class name: is "New character"
     Got: "ListView{id=2131230831, res-name=lv_items, visibility=VISIBLE, width=1536, height=1872, has-focus=true, has-focusable=true, has-window-focus=true, is-clickable=true, is-enabled=true, is-focused=true, is-focusable=true, is-layout-requested=false, is-selected=false, layout-params=android.support.design.widget.CoordinatorLayout$LayoutParams@528a78b, tag=null, root-is-layout-requested=false, has-input-connection=false, x=0.0, y=0.0, child-count=20}"

	at android.support.test.espresso.matcher.ViewMatchers.assertThat(ViewMatchers.java:539)
	at android.support.test.espresso.assertion.ViewAssertions$MatchesViewAssertion.check(ViewAssertions.java:103)
	at android.support.test.espresso.ViewInteraction$SingleExecutionViewAssertion.check(ViewInteraction.java:415)
	at android.support.test.espresso.ViewInteraction$2.call(ViewInteraction.java:279)
	at android.support.test.espresso.ViewInteraction$2.call(ViewInteraction.java:265)
	at java.util.concurrent.FutureTask.run(FutureTask.java:237)
	at android.os.Handler.handleCallback(Handler.java:751)
	at android.os.Handler.dispatchMessage(Handler.java:95)
	at android.os.Looper.loop(Looper.java:159)
	at android.app.ActivityThread.main(ActivityThread.java:6097)
	at java.lang.reflect.Method.invoke(Native Method)
	at com.android.internal.os.ZygoteInit$MethodAndArgsCaller.run(ZygoteInit.java:865)
	at com.android.internal.os.ZygoteInit.main(ZygoteInit.java:755)

INSTRUMENTATION_STATUS: id=AndroidJUnitRunner
INSTRUMENTATION_STATUS: test=testAddItem_failsRandomly
INSTRUMENTATION_STATUS: class=org.hogent.nicolas.loots.scalabletestingconcept.TestSet4
INSTRUMENTATION_STATUS: stack=android.support.test.espresso.base.DefaultFailureHandler$AssertionFailedWithCauseError: 'with class name: is "New character"' doesn't match the selected view.
Expected: with class name: is "New character"
     Got: "ListView{id=2131230831, res-name=lv_items, visibility=VISIBLE, width=1536, height=1872, has-focus=true, has-focusable=true, has-window-focus=true, is-clickable=true, is-enabled=true, is-focused=true, is-focusable=true, is-layout-requested=false, is-selected=false, layout-params=android.support.design.widget.CoordinatorLayout$LayoutParams@528a78b, tag=null, root-is-layout-requested=false, has-input-connection=false, x=0.0, y=0.0, child-count=20}"

	at dalvik.system.VMStack.getThreadStackTrace(Native Method)
	at java.lang.Thread.getStackTrace(Thread.java:1566)
	at android.support.test.espresso.base.DefaultFailureHandler.getUserFriendlyError(DefaultFailureHandler.java:88)
	at android.support.test.espresso.base.DefaultFailureHandler.handle(DefaultFailureHandler.java:51)
	at android.support.test.espresso.ViewInteraction.waitForAndHandleInteractionResults(ViewInteraction.java:314)
	at android.support.test.espresso.ViewInteraction.check(ViewInteraction.java:297)
	at org.hogent.nicolas.loots.scalabletestingconcept.TestSet4.testAddItem_failsRandomly(TestSet4.java:93)
	at java.lang.reflect.Method.invoke(Native Method)
	at org.junit.runners.model.FrameworkMethod$1.runReflectiveCall(FrameworkMethod.java:50)
	at org.junit.internal.runners.model.ReflectiveCallable.run(ReflectiveCallable.java:12)
	at org.junit.runners.model.FrameworkMethod.invokeExplosively(FrameworkMethod.java:47)
	at org.junit.internal.runners.statements.InvokeMethod.evaluate(InvokeMethod.java:17)
	at android.support.test.rule.ActivityTestRule$ActivityStatement.evaluate(ActivityTestRule.java:527)
	at org.junit.rules.RunRules.evaluate(RunRules.java:20)
	at org.junit.runners.ParentRunner.runLeaf(ParentRunner.java:325)
	at org.junit.runners.BlockJUnit4ClassRunner.runChild(BlockJUnit4ClassRunner.java:78)
	at org.junit.runners.BlockJUnit4ClassRunner.runChild(BlockJUnit4ClassRunner.java:57)
	at org.junit.runners.ParentRunner$3.run(ParentRunner.java:290)
	at org.junit.runners.ParentRunner$1.schedule(ParentRunner.java:71)
	at org.junit.runners.ParentRunner.runChildren(ParentRunner.java:288)
	at org.junit.runners.ParentRunner.access$000(ParentRunner.java:58)
	at org.junit.runners.ParentRunner$2.evaluate(ParentRunner.java:268)
	at org.junit.runners.ParentRunner.run(ParentRunner.java:363)
	at android.support.test.runner.AndroidJUnit4.run(AndroidJUnit4.java:101)
	at org.junit.runners.Suite.runChild(Suite.java:128)
	at org.junit.runners.Suite.runChild(Suite.java:27)
	at org.junit.runners.ParentRunner$3.run(ParentRunner.java:290)
	at org.junit.runners.ParentRunner$1.schedule(ParentRunner.java:71)
	at org.junit.runners.ParentRunner.runChildren(ParentRunner.java:288)
	at org.junit.runners.ParentRunner.access$000(ParentRunner.java:58)
	at org.junit.runners.ParentRunner$2.evaluate(ParentRunner.java:268)
	at org.junit.runners.ParentRunner.run(ParentRunner.java:363)
	at org.junit.runner.JUnitCore.run(JUnitCore.java:137)
	at org.junit.runner.JUnitCore.run(JUnitCore.java:115)
	at android.support.test.internal.runner.TestExecutor.execute(TestExecutor.java:56)
	at android.support.test.runner.AndroidJUnitRunner.onStart(AndroidJUnitRunner.java:384)
	at android.app.Instrumentation$InstrumentationThread.run(Instrumentation.java:1932)
Caused by: junit.framework.AssertionFailedError: 'with class name: is "New character"' doesn't match the selected view.
Expected: with class name: is "New character"
     Got: "ListView{id=2131230831, res-name=lv_items, visibility=VISIBLE, width=1536, height=1872, has-focus=true, has-focusable=true, has-window-focus=true, is-clickable=true, is-enabled=true, is-focused=true, is-focusable=true, is-layout-requested=false, is-selected=false, layout-params=android.support.design.widget.CoordinatorLayout$LayoutParams@528a78b, tag=null, root-is-layout-requested=false, has-input-connection=false, x=0.0, y=0.0, child-count=20}"

	at android.support.test.espresso.matcher.ViewMatchers.assertThat(ViewMatchers.java:539)
	at android.support.test.espresso.assertion.ViewAssertions$MatchesViewAssertion.check(ViewAssertions.java:103)
	at android.support.test.espresso.ViewInteraction$SingleExecutionViewAssertion.check(ViewInteraction.java:415)
	at android.support.test.espresso.ViewInteraction$2.call(ViewInteraction.java:279)
	at android.support.test.espresso.ViewInteraction$2.call(ViewInteraction.java:265)
	at java.util.concurrent.FutureTask.run(FutureTask.java:237)
	at android.os.Handler.handleCallback(Handler.java:751)
	at android.os.Handler.dispatchMessage(Handler.java:95)
	at android.os.Looper.loop(Looper.java:159)
	at android.app.ActivityThread.main(ActivityThread.java:6097)
	at java.lang.reflect.Method.invoke(Native Method)
	at com.android.internal.os.ZygoteInit$MethodAndArgsCaller.run(ZygoteInit.java:865)
	at com.android.internal.os.ZygoteInit.main(ZygoteInit.java:755)

INSTRUMENTATION_STATUS: current=7
INSTRUMENTATION_STATUS_CODE: -2
INSTRUMENTATION_STATUS: numtests=14
INSTRUMENTATION_STATUS: stream=
INSTRUMENTATION_STATUS: id=AndroidJUnitRunner
INSTRUMENTATION_STATUS: test=testRemoveItem
INSTRUMENTATION_STATUS: class=org.hogent.nicolas.loots.scalabletestingconcept.TestSet4
INSTRUMENTATION_STATUS: current=8
INSTRUMENTATION_STATUS_CODE: 1
INSTRUMENTATION_STATUS: numtests=14
INSTRUMENTATION_STATUS: stream=.
INSTRUMENTATION_STATUS: id=AndroidJUnitRunner
INSTRUMENTATION_STATUS: test=testRemoveItem
INSTRUMENTATION_STATUS: class=org.hogent.nicolas.loots.scalabletestingconcept.TestSet4
INSTRUMENTATION_STATUS: current=8
INSTRUMENTATION_STATUS_CODE: 0
INSTRUMENTATION_STATUS: numtests=14
INSTRUMENTATION_STATUS: stream=
org.hogent.nicolas.loots.scalabletestingconcept.TestSet5:
INSTRUMENTATION_STATUS: id=AndroidJUnitRunner
INSTRUMENTATION_STATUS: test=testEditItem
INSTRUMENTATION_STATUS: class=org.hogent.nicolas.loots.scalabletestingconcept.TestSet5
INSTRUMENTATION_STATUS: current=9
INSTRUMENTATION_STATUS_CODE: 1
INSTRUMENTATION_STATUS: numtests=14
INSTRUMENTATION_STATUS: stream=.
INSTRUMENTATION_STATUS: id=AndroidJUnitRunner
INSTRUMENTATION_STATUS: test=testEditItem
INSTRUMENTATION_STATUS: class=org.hogent.nicolas.loots.scalabletestingconcept.TestSet5
INSTRUMENTATION_STATUS: current=9
INSTRUMENTATION_STATUS_CODE: 0
INSTRUMENTATION_STATUS: numtests=14
INSTRUMENTATION_STATUS: stream=
INSTRUMENTATION_STATUS: id=AndroidJUnitRunner
INSTRUMENTATION_STATUS: test=testAddItem_firstNameRequired
INSTRUMENTATION_STATUS: class=org.hogent.nicolas.loots.scalabletestingconcept.TestSet5
INSTRUMENTATION_STATUS: current=10
INSTRUMENTATION_STATUS_CODE: 1
INSTRUMENTATION_STATUS: numtests=14
INSTRUMENTATION_STATUS: stream=.
INSTRUMENTATION_STATUS: id=AndroidJUnitRunner
INSTRUMENTATION_STATUS: test=testAddItem_firstNameRequired
INSTRUMENTATION_STATUS: class=org.hogent.nicolas.loots.scalabletestingconcept.TestSet5
INSTRUMENTATION_STATUS: current=10
INSTRUMENTATION_STATUS_CODE: 0
INSTRUMENTATION_STATUS: numtests=14
INSTRUMENTATION_STATUS: stream=
INSTRUMENTATION_STATUS: id=AndroidJUnitRunner
INSTRUMENTATION_STATUS: test=testAddItem_invalidPhoneNumber
INSTRUMENTATION_STATUS: class=org.hogent.nicolas.loots.scalabletestingconcept.TestSet5
INSTRUMENTATION_STATUS: current=11
INSTRUMENTATION_STATUS_CODE: 1
INSTRUMENTATION_STATUS: numtests=14
INSTRUMENTATION_STATUS: stream=.
INSTRUMENTATION_STATUS: id=AndroidJUnitRunner
INSTRUMENTATION_STATUS: test=testAddItem_invalidPhoneNumber
INSTRUMENTATION_STATUS: class=org.hogent.nicolas.loots.scalabletestingconcept.TestSet5
INSTRUMENTATION_STATUS: current=11
INSTRUMENTATION_STATUS_CODE: 0
INSTRUMENTATION_STATUS: numtests=14
INSTRUMENTATION_STATUS: stream=
INSTRUMENTATION_STATUS: id=AndroidJUnitRunner
INSTRUMENTATION_STATUS: test=testRemoveItem
INSTRUMENTATION_STATUS: class=org.hogent.nicolas.loots.scalabletestingconcept.TestSet5
INSTRUMENTATION_STATUS: current=12
INSTRUMENTATION_STATUS_CODE: 1
INSTRUMENTATION_STATUS: numtests=14
INSTRUMENTATION_STATUS: stream=.
INSTRUMENTATION_STATUS: id=AndroidJUnitRunner
INSTRUMENTATION_STATUS: test=testRemoveItem
INSTRUMENTATION_STATUS: class=org.hogent.nicolas.loots.scalabletestingconcept.TestSet5
INSTRUMENTATION_STATUS: current=12
INSTRUMENTATION_STATUS_CODE: 0
INSTRUMENTATION_STATUS: numtests=14
INSTRUMENTATION_STATUS: stream=
INSTRUMENTATION_STATUS: id=AndroidJUnitRunner
INSTRUMENTATION_STATUS: test=testAddItem_lastNameRequired
INSTRUMENTATION_STATUS: class=org.hogent.nicolas.loots.scalabletestingconcept.TestSet5
INSTRUMENTATION_STATUS: current=13
INSTRUMENTATION_STATUS_CODE: 1
INSTRUMENTATION_STATUS: numtests=14
INSTRUMENTATION_STATUS: stream=.
INSTRUMENTATION_STATUS: id=AndroidJUnitRunner
INSTRUMENTATION_STATUS: test=testAddItem_lastNameRequired
INSTRUMENTATION_STATUS: class=org.hogent.nicolas.loots.scalabletestingconcept.TestSet5
INSTRUMENTATION_STATUS: current=13
INSTRUMENTATION_STATUS_CODE: 0
INSTRUMENTATION_STATUS: numtests=14
INSTRUMENTATION_STATUS: stream=
INSTRUMENTATION_STATUS: id=AndroidJUnitRunner
INSTRUMENTATION_STATUS: test=testAddItem_correctInput
INSTRUMENTATION_STATUS: class=org.hogent.nicolas.loots.scalabletestingconcept.TestSet5
INSTRUMENTATION_STATUS: current=14
INSTRUMENTATION_STATUS_CODE: 1
INSTRUMENTATION_STATUS: numtests=14
INSTRUMENTATION_STATUS: stream=.
INSTRUMENTATION_STATUS: id=AndroidJUnitRunner
INSTRUMENTATION_STATUS: test=testAddItem_correctInput
INSTRUMENTATION_STATUS: class=org.hogent.nicolas.loots.scalabletestingconcept.TestSet5
INSTRUMENTATION_STATUS: current=14
INSTRUMENTATION_STATUS_CODE: 0
INSTRUMENTATION_RESULT: stream=

Time: 33.199
There were 2 failures:
1) testInput_invalid_failsRandomly(org.hogent.nicolas.loots.scalabletestingconcept.TestSet2)
android.support.test.espresso.NoMatchingViewException: No views in hierarchy found matching: with string from resource id: <2131492920>[success] value: Success

View Hierarchy:
+>DecorView{id=-1, visibility=VISIBLE, width=1536, height=2048, has-focus=true, has-focusable=true, has-window-focus=true, is-clickable=false, is-enabled=true, is-focused=false, is-focusable=false, is-layout-requested=false, is-selected=false, layout-params=WM.LayoutParams{(0,0)(fillxfill) ty=1 fl=#81810100 pfl=0x20000 wanim=0x1030465 needsMenuKey=2}, tag=null, root-is-layout-requested=false, has-input-connection=false, x=0.0, y=0.0, child-count=2} 
|
+->LinearLayout{id=-1, visibility=VISIBLE, width=1536, height=2048, has-focus=true, has-focusable=true, has-window-focus=true, is-clickable=false, is-enabled=true, is-focused=false, is-focusable=false, is-layout-requested=false, is-selected=false, layout-params=android.widget.FrameLayout$LayoutParams@e5e81c0, tag=null, root-is-layout-requested=false, has-input-connection=false, x=0.0, y=0.0, child-count=2} 
|
+-->ViewStub{id=16909352, res-name=action_mode_bar_stub, visibility=GONE, width=0, height=0, has-focus=false, has-focusable=false, has-window-focus=true, is-clickable=false, is-enabled=true, is-focused=false, is-focusable=false, is-layout-requested=true, is-selected=false, layout-params=android.widget.LinearLayout$LayoutParams@445eef9, tag=null, root-is-layout-requested=false, has-input-connection=false, x=0.0, y=0.0} 
|
+-->FrameLayout{id=-1, visibility=VISIBLE, width=1536, height=2000, has-focus=true, has-focusable=true, has-window-focus=true, is-clickable=false, is-enabled=true, is-focused=false, is-focusable=false, is-layout-requested=false, is-selected=false, layout-params=android.widget.LinearLayout$LayoutParams@1dee49f, tag=null, root-is-layout-requested=false, has-input-connection=false, x=0.0, y=48.0, child-count=1} 
|
+--->ActionBarOverlayLayout{id=2131230783, res-name=decor_content_parent, visibility=VISIBLE, width=1536, height=2000, has-focus=true, has-focusable=true, has-window-focus=true, is-clickable=false, is-enabled=true, is-focused=false, is-focusable=false, is-layout-requested=false, is-selected=false, layout-params=android.widget.FrameLayout$LayoutParams@b23904a, tag=null, root-is-layout-requested=false, has-input-connection=false, x=0.0, y=0.0, child-count=2} 
|
+---->ContentFrameLayout{id=16908290, res-name=content, visibility=VISIBLE, width=1536, height=1872, has-focus=true, has-focusable=true, has-window-focus=true, is-clickable=false, is-enabled=true, is-focused=false, is-focusable=false, is-layout-requested=false, is-selected=false, layout-params=android.support.v7.widget.ActionBarOverlayLayout$LayoutParams@d12c8d8, tag=null, root-is-layout-requested=false, has-input-connection=false, x=0.0, y=128.0, child-count=1} 
|
+----->LinearLayout{id=-1, visibility=VISIBLE, width=1536, height=1872, has-focus=true, has-focusable=true, has-window-focus=true, is-clickable=false, is-enabled=true, is-focused=false, is-focusable=false, is-layout-requested=false, is-selected=false, layout-params=android.widget.FrameLayout$LayoutParams@242c897, tag=null, root-is-layout-requested=false, has-input-connection=false, x=0.0, y=0.0, child-count=2} 
|
+------>LinearLayout{id=-1, visibility=VISIBLE, width=1536, height=100, has-focus=true, has-focusable=true, has-window-focus=true, is-clickable=false, is-enabled=true, is-focused=false, is-focusable=false, is-layout-requested=false, is-selected=false, layout-params=android.widget.LinearLayout$LayoutParams@d45dea2, tag=null, root-is-layout-requested=false, has-input-connection=false, x=0.0, y=0.0, child-count=2} 
|
+------->AppCompatEditText{id=2131230793, res-name=editText_test2, visibility=VISIBLE, width=1360, height=100, has-focus=true, has-focusable=true, has-window-focus=true, is-clickable=true, is-enabled=true, is-focused=true, is-focusable=true, is-layout-requested=false, is-selected=false, layout-params=android.widget.LinearLayout$LayoutParams@e038869, tag=null, root-is-layout-requested=false, has-input-connection=true, editor-info=[inputType=0x61 imeOptions=0x6 privateImeOptions=null actionLabel=null actionId=0 initialSelStart=24 initialSelEnd=24 initialCapsMode=0x0 hintText=Type something here label=null packageName=null fieldId=0 fieldName=null extras=null hintLocales=null ], x=0.0, y=0.0, text=This test fails randomly, hint=Type something here, input-type=97, ime-target=true, has-links=false} 
|
+------->AppCompatButton{id=2131230759, res-name=btn_confirm, visibility=VISIBLE, width=176, height=96, has-focus=false, has-focusable=true, has-window-focus=true, is-clickable=true, is-enabled=true, is-focused=false, is-focusable=true, is-layout-requested=false, is-selected=false, layout-params=android.widget.LinearLayout$LayoutParams@54742ee, tag=null, root-is-layout-requested=false, has-input-connection=false, x=1360.0, y=4.0, text=OK, input-type=0, ime-target=false, has-links=false} 
|
+------>AppCompatTextView{id=2131230856, res-name=resultText_test2, visibility=VISIBLE, width=1536, height=54, has-focus=false, has-focusable=false, has-window-focus=true, is-clickable=false, is-enabled=true, is-focused=false, is-focusable=false, is-layout-requested=false, is-selected=false, layout-params=android.widget.LinearLayout$LayoutParams@7d0338f, tag=null, root-is-layout-requested=false, has-input-connection=false, x=0.0, y=100.0, text=Failure, input-type=0, ime-target=false, has-links=false} 
|
+---->ActionBarContainer{id=2131230729, res-name=action_bar_container, visibility=VISIBLE, width=1536, height=128, has-focus=false, has-focusable=false, has-window-focus=true, is-clickable=false, is-enabled=true, is-focused=false, is-focusable=false, is-layout-requested=false, is-selected=false, layout-params=android.support.v7.widget.ActionBarOverlayLayout$LayoutParams@fe89ffa, tag=null, root-is-layout-requested=false, has-input-connection=false, x=0.0, y=0.0, child-count=2} 
|
+----->Toolbar{id=2131230727, res-name=action_bar, visibility=VISIBLE, width=1536, height=128, has-focus=false, has-focusable=false, has-window-focus=true, is-clickable=false, is-enabled=true, is-focused=false, is-focusable=false, is-layout-requested=false, is-selected=false, layout-params=android.widget.FrameLayout$LayoutParams@810c1c6, tag=null, root-is-layout-requested=false, has-input-connection=false, x=0.0, y=0.0, child-count=3} 
|
+------>AppCompatTextView{id=-1, visibility=VISIBLE, width=449, height=54, has-focus=false, has-focusable=false, has-window-focus=true, is-clickable=false, is-enabled=true, is-focused=false, is-focusable=false, is-layout-requested=false, is-selected=false, layout-params=android.support.v7.widget.Toolbar$LayoutParams@f510587, tag=null, root-is-layout-requested=false, has-input-connection=false, x=160.0, y=37.0, text=Scalable Testing concept, input-type=0, ime-target=false, has-links=false} 
|
+------>AppCompatImageButton{id=-1, desc=Navigate up, visibility=VISIBLE, width=112, height=128, has-focus=false, has-focusable=false, has-window-focus=true, is-clickable=true, is-enabled=true, is-focused=false, is-focusable=true, is-layout-requested=false, is-selected=false, layout-params=android.support.v7.widget.Toolbar$LayoutParams@298acb4, tag=null, root-is-layout-requested=false, has-input-connection=false, x=16.0, y=0.0} 
|
+------>ActionMenuView{id=-1, visibility=VISIBLE, width=0, height=128, has-focus=false, has-focusable=false, has-window-focus=true, is-clickable=false, is-enabled=true, is-focused=false, is-focusable=false, is-layout-requested=false, is-selected=false, layout-params=android.support.v7.widget.Toolbar$LayoutParams@6d890dd, tag=null, root-is-layout-requested=false, has-input-connection=false, x=1520.0, y=0.0, child-count=0} 
|
+----->ActionBarContextView{id=2131230735, res-name=action_context_bar, visibility=GONE, width=0, height=0, has-focus=false, has-focusable=false, has-window-focus=true, is-clickable=false, is-enabled=true, is-focused=false, is-focusable=false, is-layout-requested=true, is-selected=false, layout-params=android.widget.FrameLayout$LayoutParams@e473452, tag=null, root-is-layout-requested=false, has-input-connection=false, x=0.0, y=0.0, child-count=0} 
|
+->View{id=16908335, res-name=statusBarBackground, visibility=VISIBLE, width=1536, height=48, has-focus=false, has-focusable=false, has-window-focus=true, is-clickable=false, is-enabled=true, is-focused=false, is-focusable=false, is-layout-requested=false, is-selected=false, layout-params=android.widget.FrameLayout$LayoutParams@fae7323, tag=null, root-is-layout-requested=false, has-input-connection=false, x=0.0, y=0.0} 
|
	at dalvik.system.VMStack.getThreadStackTrace(Native Method)
	at java.lang.Thread.getStackTrace(Thread.java:1566)
	at android.support.test.espresso.base.DefaultFailureHandler.getUserFriendlyError(DefaultFailureHandler.java:88)
	at android.support.test.espresso.base.DefaultFailureHandler.handle(DefaultFailureHandler.java:51)
	at android.support.test.espresso.ViewInteraction.waitForAndHandleInteractionResults(ViewInteraction.java:312)
	at android.support.test.espresso.ViewInteraction.check(ViewInteraction.java:297)
	at org.hogent.nicolas.loots.scalabletestingconcept.TestSet2.testInput(TestSet2.java:48)
	at org.hogent.nicolas.loots.scalabletestingconcept.TestSet2.testInput_invalid_failsRandomly(TestSet2.java:41)
	at java.lang.reflect.Method.invoke(Native Method)
	at org.junit.runners.model.FrameworkMethod$1.runReflectiveCall(FrameworkMethod.java:50)
	at org.junit.internal.runners.model.ReflectiveCallable.run(ReflectiveCallable.java:12)
	at org.junit.runners.model.FrameworkMethod.invokeExplosively(FrameworkMethod.java:47)
	at org.junit.internal.runners.statements.InvokeMethod.evaluate(InvokeMethod.java:17)
	at android.support.test.rule.ActivityTestRule$ActivityStatement.evaluate(ActivityTestRule.java:527)
	at org.junit.rules.RunRules.evaluate(RunRules.java:20)
	at org.junit.runners.ParentRunner.runLeaf(ParentRunner.java:325)
	at org.junit.runners.BlockJUnit4ClassRunner.runChild(BlockJUnit4ClassRunner.java:78)
	at org.junit.runners.BlockJUnit4ClassRunner.runChild(BlockJUnit4ClassRunner.java:57)
	at org.junit.runners.ParentRunner$3.run(ParentRunner.java:290)
	at org.junit.runners.ParentRunner$1.schedule(ParentRunner.java:71)
	at org.junit.runners.ParentRunner.runChildren(ParentRunner.java:288)
	at org.junit.runners.ParentRunner.access$000(ParentRunner.java:58)
	at org.junit.runners.ParentRunner$2.evaluate(ParentRunner.java:268)
	at org.junit.runners.ParentRunner.run(ParentRunner.java:363)
	at android.support.test.runner.AndroidJUnit4.run(AndroidJUnit4.java:101)
	at org.junit.runners.Suite.runChild(Suite.java:128)
	at org.junit.runners.Suite.runChild(Suite.java:27)
	at org.junit.runners.ParentRunner$3.run(ParentRunner.java:290)
	at org.junit.runners.ParentRunner$1.schedule(ParentRunner.java:71)
	at org.junit.runners.ParentRunner.runChildren(ParentRunner.java:288)
	at org.junit.runners.ParentRunner.access$000(ParentRunner.java:58)
	at org.junit.runners.ParentRunner$2.evaluate(ParentRunner.java:268)
	at org.junit.runners.ParentRunner.run(ParentRunner.java:363)
	at org.junit.runner.JUnitCore.run(JUnitCore.java:137)
	at org.junit.runner.JUnitCore.run(JUnitCore.java:115)
	at android.support.test.internal.runner.TestExecutor.execute(TestExecutor.java:56)
	at android.support.test.runner.AndroidJUnitRunner.onStart(AndroidJUnitRunner.java:384)
	at android.app.Instrumentation$InstrumentationThread.run(Instrumentation.java:1932)
2) testAddItem_failsRandomly(org.hogent.nicolas.loots.scalabletestingconcept.TestSet4)
android.support.test.espresso.base.DefaultFailureHandler$AssertionFailedWithCauseError: 'with class name: is "New character"' doesn't match the selected view.
Expected: with class name: is "New character"
     Got: "ListView{id=2131230831, res-name=lv_items, visibility=VISIBLE, width=1536, height=1872, has-focus=true, has-focusable=true, has-window-focus=true, is-clickable=true, is-enabled=true, is-focused=true, is-focusable=true, is-layout-requested=false, is-selected=false, layout-params=android.support.design.widget.CoordinatorLayout$LayoutParams@528a78b, tag=null, root-is-layout-requested=false, has-input-connection=false, x=0.0, y=0.0, child-count=20}"

	at dalvik.system.VMStack.getThreadStackTrace(Native Method)
	at java.lang.Thread.getStackTrace(Thread.java:1566)
	at android.support.test.espresso.base.DefaultFailureHandler.getUserFriendlyError(DefaultFailureHandler.java:88)
	at android.support.test.espresso.base.DefaultFailureHandler.handle(DefaultFailureHandler.java:51)
	at android.support.test.espresso.ViewInteraction.waitForAndHandleInteractionResults(ViewInteraction.java:314)
	at android.support.test.espresso.ViewInteraction.check(ViewInteraction.java:297)
	at org.hogent.nicolas.loots.scalabletestingconcept.TestSet4.testAddItem_failsRandomly(TestSet4.java:93)
	at java.lang.reflect.Method.invoke(Native Method)
	at org.junit.runners.model.FrameworkMethod$1.runReflectiveCall(FrameworkMethod.java:50)
	at org.junit.internal.runners.model.ReflectiveCallable.run(ReflectiveCallable.java:12)
	at org.junit.runners.model.FrameworkMethod.invokeExplosively(FrameworkMethod.java:47)
	at org.junit.internal.runners.statements.InvokeMethod.evaluate(InvokeMethod.java:17)
	at android.support.test.rule.ActivityTestRule$ActivityStatement.evaluate(ActivityTestRule.java:527)
	at org.junit.rules.RunRules.evaluate(RunRules.java:20)
	at org.junit.runners.ParentRunner.runLeaf(ParentRunner.java:325)
	at org.junit.runners.BlockJUnit4ClassRunner.runChild(BlockJUnit4ClassRunner.java:78)
	at org.junit.runners.BlockJUnit4ClassRunner.runChild(BlockJUnit4ClassRunner.java:57)
	at org.junit.runners.ParentRunner$3.run(ParentRunner.java:290)
	at org.junit.runners.ParentRunner$1.schedule(ParentRunner.java:71)
	at org.junit.runners.ParentRunner.runChildren(ParentRunner.java:288)
	at org.junit.runners.ParentRunner.access$000(ParentRunner.java:58)
	at org.junit.runners.ParentRunner$2.evaluate(ParentRunner.java:268)
	at org.junit.runners.ParentRunner.run(ParentRunner.java:363)
	at android.support.test.runner.AndroidJUnit4.run(AndroidJUnit4.java:101)
	at org.junit.runners.Suite.runChild(Suite.java:128)
	at org.junit.runners.Suite.runChild(Suite.java:27)
	at org.junit.runners.ParentRunner$3.run(ParentRunner.java:290)
	at org.junit.runners.ParentRunner$1.schedule(ParentRunner.java:71)
	at org.junit.runners.ParentRunner.runChildren(ParentRunner.java:288)
	at org.junit.runners.ParentRunner.access$000(ParentRunner.java:58)
	at org.junit.runners.ParentRunner$2.evaluate(ParentRunner.java:268)
	at org.junit.runners.ParentRunner.run(ParentRunner.java:363)
	at org.junit.runner.JUnitCore.run(JUnitCore.java:137)
	at org.junit.runner.JUnitCore.run(JUnitCore.java:115)
	at android.support.test.internal.runner.TestExecutor.execute(TestExecutor.java:56)
	at android.support.test.runner.AndroidJUnitRunner.onStart(AndroidJUnitRunner.java:384)
	at android.app.Instrumentation$InstrumentationThread.run(Instrumentation.java:1932)
Caused by: junit.framework.AssertionFailedError: 'with class name: is "New character"' doesn't match the selected view.
Expected: with class name: is "New character"
     Got: "ListView{id=2131230831, res-name=lv_items, visibility=VISIBLE, width=1536, height=1872, has-focus=true, has-focusable=true, has-window-focus=true, is-clickable=true, is-enabled=true, is-focused=true, is-focusable=true, is-layout-requested=false, is-selected=false, layout-params=android.support.design.widget.CoordinatorLayout$LayoutParams@528a78b, tag=null, root-is-layout-requested=false, has-input-connection=false, x=0.0, y=0.0, child-count=20}"

	at android.support.test.espresso.matcher.ViewMatchers.assertThat(ViewMatchers.java:539)
	at android.support.test.espresso.assertion.ViewAssertions$MatchesViewAssertion.check(ViewAssertions.java:103)
	at android.support.test.espresso.ViewInteraction$SingleExecutionViewAssertion.check(ViewInteraction.java:415)
	at android.support.test.espresso.ViewInteraction$2.call(ViewInteraction.java:279)
	at android.support.test.espresso.ViewInteraction$2.call(ViewInteraction.java:265)
	at java.util.concurrent.FutureTask.run(FutureTask.java:237)
	at android.os.Handler.handleCallback(Handler.java:751)
	at android.os.Handler.dispatchMessage(Handler.java:95)
	at android.os.Looper.loop(Looper.java:159)
	at android.app.ActivityThread.main(ActivityThread.java:6097)
	at java.lang.reflect.Method.invoke(Native Method)
	at com.android.internal.os.ZygoteInit$MethodAndArgsCaller.run(ZygoteInit.java:865)
	at com.android.internal.os.ZygoteInit.main(ZygoteInit.java:755)

FAILURES!!!
Tests run: 14,  Failures: 2


INSTRUMENTATION_CODE: -1
